0.00025,7e-05
0.00025,7e-05
0.00025,7e-05
0.00025,7e-05
0.00025,7e-05
0.00025,7e-05
0.00025,7e-05
0.00025,7e-05
0.00025,7e-05
0.00025,7e-05
0.00025,7e-05
0.00025,7e-05
0.00025,7e-05
0.00025,7e-05
0.00025,7e-05
0.00025,7e-05
0.00025,7e-05
0.00025,7e-05
0.00025,7e-05
0.00025,7e-05
0.00025,7e-05
0.00025,7e-05
0.00025,7e-05
0.00025,7e-05
0.00025,7e-05
0.00025,7e-05
0.00025,7e-05
0.00025,7e-05
0.00025,7e-05
0.00025,7e-05
0.00025,7e-05
0.00025,7e-05
0.00025,7e-05
0.00025,7e-05
0.00025,7e-05
0.00025,7e-05
0.00025,7e-05
0.00025,7e-05
0.00025,7e-05
0.00025,7e-05
0.00025,7e-05
0.00025,7e-05
0.00025,7e-05
0.00025,7e-05
0.00025,7e-05
0.00025,7e-05
0.00025,7e-05
0.00025,7e-05
0.00025,7e-05
0.00025,7e-05
0.00025,7e-05
0.00025,7e-05
0.00025,7e-05
0.00025,7e-05
0.00025,7e-05
0.00025,7e-05
0.00025,7e-05
0.00025,7e-05
0.00025,7e-05
0.00025,7e-05
0.00025,7e-05
0.00025,7e-05
0.00025,7e-05
0.00025,7e-05
0.00025,7e-05
0.00025,7e-05
0.00025,7e-05
0.00025,7e-05
0.00025,7e-05
0.00025,7e-05
0.00025,7e-05
0.00025,7e-05
0.00025,7e-05
0.00025,7e-05
0.00025,7e-05
0.00025,7e-05
0.00025,7e-05
0.00025,7e-05
0.00025,7e-05
0.00025,7e-05
0.00025,7e-05
0.00025,7e-05
0.00025,7e-05
0.00025,7e-05
0.00025,7e-05
0.00025,7e-05
0.00025,7e-05
0.00025,7e-05
0.00025,7e-05
0.00025,7e-05
0.00025,7e-05
0.00025,7e-05
0.00025,7e-05
0.00025,7e-05
0.00025,7e-05
0.00025,7e-05
0.00025,7e-05
0.00025,7e-05
0.00025,7e-05
0.00025,7e-05
0.00025,7e-05
0.00025,7e-05
0.00025,7e-05
0.00025,7e-05
0.00025,7e-05
0.00025,7e-05
0.00025,7e-05
0.00025,7e-05
0.00025,7e-05
0.00025,7e-05
0.00025,7e-05
0.00025,7e-05
0.00025,7e-05
0.00025,7e-05
0.00025,7e-05
0.00025,7e-05
0.00025,7e-05
0.00025,7e-05
0.00025,7e-05
0.00025,7e-05
0.00025,7e-05
0.00025,7e-05
0.00025,7e-05
0.00025,7e-05
0.00025,7e-05
0.00025,7e-05
0.00025,7e-05
0.00025,7e-05
0.00025,7e-05
0.00025,7e-05
0.00025,7e-05
0.00025,7e-05
0.00025,7e-05
0.00025,7e-05
0.00025,7e-05
0.00025,7e-05
0.00025,7e-05
0.00025,7e-05
0.00025,7e-05
0.00025,7e-05
0.00025,7e-05
0.00025,7e-05
0.00025,7e-05
0.00025,7e-05
0.00025,7e-05
0.00025,7e-05
0.00025,7e-05
0.00025,7e-05
0.00025,7e-05
0.00025,7e-05
0.00025,7e-05
0.00025,7e-05
0.00025,7e-05
0.00025,7e-05
0.00025,7e-05
0.00025,7e-05
0.00025,7e-05
0.00025,7e-05
0.00025,7e-05
0.00025,7e-05
0.00025,7e-05
0.00025,7e-05
0.00025,7e-05
0.00025,7e-05
0.00025,7e-05
0.00025,7e-05
0.00025,7e-05
0.00025,7e-05
0.00025,7e-05
0.00025,7e-05
0.00025,7e-05
0.00025,7e-05
0.00025,7e-05
0.00025,7e-05
0.00025,7e-05
0.00025,7e-05
0.00025,7e-05
0.00025,7e-05
0.00025,7e-05
0.00025,7e-05
0.00025,7e-05
0.00025,7e-05
0.00025,7e-05
0.00025,7e-05
0.00025,7e-05
0.00025,7e-05
0.00025,7e-05
0.00025,7e-05
0.00025,7e-05
0.00025,7e-05
0.00025,7e-05
0.00025,7e-05
0.00025,7e-05
0.00025,7e-05
0.00025,7e-05
0.00025,7e-05
0.00025,7e-05
0.00025,7e-05
0.00025,7e-05
0.00025,7e-05
0.00025,7e-05
0.00025,7e-05
0.00025,7e-05
0.00025,7e-05
0.00025,7e-05
0.00025,7e-05
0.00025,7e-05
0.00025,7e-05
0.00025,7e-05
0.00025,7e-05
0.00025,7e-05
0.00025,7e-05
0.00025,7e-05
0.00025,7e-05
0.00025,7e-05
0.00025,7e-05
0.00025,7e-05
0.00025,7e-05
0.00025,7e-05
0.00025,7e-05
0.00025,7e-05
0.00025,7e-05
0.00025,7e-05
0.00025,7e-05
0.00025,7e-05
0.00025,7e-05
0.00025,7e-05
0.00025,7e-05
0.00025,7e-05
0.00025,7e-05
0.00025,7e-05
0.00025,7e-05
0.00025,7e-05
0.00025,7e-05
0.00025,7e-05
0.00025,7e-05
0.00025,7e-05
0.00025,7e-05
0.00025,7e-05
0.00025,7e-05
0.00025,7e-05
0.00025,7e-05
0.00025,7e-05
0.00025,7e-05
0.00025,7e-05
0.00025,7e-05
0.00025,7e-05
0.00025,7e-05
0.00025,7e-05
0.00025,7e-05
0.00025,7e-05
0.00025,7e-05
0.00025,7e-05
0.00025,7e-05
0.00025,7e-05
0.00025,7e-05
0.00025,7e-05
0.00025,7e-05
0.00025,7e-05
0.00025,7e-05
0.00025,7e-05
0.00025,7e-05
0.00025,7e-05
0.00025,7e-05
0.00025,7e-05
0.00025,7e-05
0.00025,7e-05
0.00025,7e-05
0.00025,7e-05
0.00025,7e-05
0.00025,7e-05
0.00025,7e-05
0.00025,7e-05
0.00025,7e-05
0.00025,7e-05
0.00025,7e-05
0.00025,7e-05
0.00025,7e-05
0.00025,7e-05
0.00025,7e-05
0.00025,7e-05
0.00025,7e-05
0.00025,7e-05
0.00025,7e-05
0.00025,7e-05
0.00025,7e-05
0.00025,7e-05
0.00025,7e-05
0.00025,7e-05
0.00025,7e-05
0.00025,7e-05
0.00025,7e-05
0.00025,7e-05
0.00025,7e-05
0.00025,7e-05
0.00025,7e-05
0.00025,7e-05
0.00025,7e-05
0.00025,7e-05
0.00025,7e-05
0.00025,7e-05
0.00025,7e-05
0.00025,7e-05
0.00025,7e-05
0.00025,7e-05
0.00025,7e-05
0.00025,7e-05
0.00025,7e-05
0.00025,7e-05
0.00025,7e-05
0.00025,7e-05
0.00025,7e-05
0.00025,7e-05
0.00025,7e-05
0.00025,7e-05
0.00025,7e-05
0.00025,7e-05
0.00025,7e-05
0.00025,7e-05
0.00025,7e-05
0.00025,7e-05
0.00025,7e-05
0.00025,7e-05
0.00025,7e-05
0.00025,7e-05
0.00025,7e-05
0.00025,7e-05
0.00025,7e-05
0.00025,7e-05
0.00025,7e-05
0.00025,7e-05
0.00025,7e-05
0.00025,7e-05
0.00025,7e-05
0.00025,7e-05
0.00025,7e-05
0.00025,7e-05
0.00025,7e-05
0.00025,7e-05
0.00025,7e-05
0.00025,7e-05
0.00025,7e-05
0.00025,7e-05
0.00025,7e-05
0.00025,7e-05
0.00025,7e-05
0.00025,7e-05
0.00025,7e-05
0.00025,7e-05
0.00025,7e-05
0.00025,7e-05
0.00025,7e-05
0.00025,7e-05
0.00025,7e-05
0.00025,7e-05
0.00025,7e-05
0.00025,7e-05
0.00025,7e-05
0.00025,7e-05
0.00025,7e-05
0.00025,7e-05
0.00025,7e-05
0.00025,7e-05
0.00025,7e-05
0.00025,7e-05
0.00025,7e-05
0.00025,7e-05
0.00025,7e-05
0.00025,7e-05
0.00025,7e-05
0.00025,7e-05
0.00025,7e-05
0.00025,7e-05
0.00025,7e-05
0.00025,7e-05
0.00025,7e-05
0.00025,7e-05
0.00025,7e-05
0.00025,7e-05
0.00025,7e-05
0.00025,7e-05
0.00025,7e-05
0.00025,7e-05
0.00025,7e-05
0.00025,7e-05
0.00025,7e-05
0.00025,7e-05
0.00025,7e-05
0.00025,7e-05
0.00025,7e-05
0.00025,7e-05
0.00025,7e-05
0.00025,7e-05
0.00025,7e-05
0.00025,7e-05
0.00025,7e-05
0.00025,7e-05
0.00025,7e-05
0.00025,7e-05
0.00025,7e-05
0.00025,7e-05
0.00025,7e-05
0.00025,7e-05
0.00025,7e-05
0.00025,7e-05
0.00025,7e-05
0.00025,7e-05
0.00025,7e-05
0.00025,7e-05
0.00025,7e-05
0.00025,7e-05
0.00025,7e-05
0.00025,7e-05
0.00025,7e-05
0.00025,7e-05
0.00025,7e-05
0.00025,7e-05
0.00025,7e-05
0.00025,7e-05
0.00025,7e-05
0.00025,7e-05
0.00025,7e-05
0.00025,7e-05
0.00025,7e-05
0.00025,7e-05
0.00025,7e-05
0.00025,7e-05
0.00025,7e-05
0.00025,7e-05
0.00025,7e-05
0.00025,7e-05
0.00025,7e-05
0.00025,7e-05
0.00025,7e-05
0.00025,7e-05
0.00025,7e-05
0.00025,7e-05
0.00025,7e-05
0.00025,7e-05
0.00025,7e-05
0.00025,7e-05
0.00025,7e-05
0.00025,7e-05
0.00025,7e-05
0.00025,7e-05
0.00025,7e-05
0.00025,7e-05
0.00025,7e-05
0.00025,7e-05
0.00025,7e-05
0.00025,7e-05
0.00025,7e-05
0.00025,7e-05
0.00025,7e-05
0.00025,7e-05
0.00025,7e-05
0.00025,7e-05
0.00025,7e-05
0.00025,7e-05
0.00025,7e-05
0.00025,7e-05
0.00025,7e-05
0.00025,7e-05
0.00025,7e-05
0.00025,7e-05
0.00025,7e-05
0.00025,7e-05
0.00025,7e-05
0.00025,7e-05
0.00025,7e-05
0.00025,7e-05
0.00025,7e-05
0.00025,7e-05
0.00025,7e-05
0.00025,7e-05
0.00025,7e-05
0.00025,7e-05
0.00025,7e-05
0.00025,7e-05
0.00025,7e-05
0.00025,7e-05
0.00025,7e-05
0.00025,7e-05
0.00025,7e-05
0.00025,7e-05
0.00025,7e-05
0.00025,7e-05
0.00025,7e-05
0.00025,7e-05
0.00025,7e-05
0.00025,7e-05
0.00025,7e-05
0.00025,7e-05
0.00025,7e-05
0.00025,7e-05
0.00025,7e-05
0.00025,7e-05
0.00025,7e-05
0.00025,7e-05
0.00025,7e-05
0.00025,7e-05
0.00025,7e-05
0.00025,7e-05
0.00025,7e-05
0.00025,7e-05
0.00025,7e-05
0.00025,7e-05
0.00025,7e-05
0.00025,7e-05
0.00025,7e-05
0.00025,7e-05
0.00025,7e-05
0.00025,7e-05
0.00025,7e-05
0.00025,7e-05
0.00025,7e-05
0.00025,7e-05
0.00025,7e-05
0.00025,7e-05
0.00025,7e-05
0.00025,7e-05
0.00025,7e-05
0.00025,7e-05
0.00025,7e-05
0.00025,7e-05
0.00025,7e-05
0.00025,7e-05
0.00025,7e-05
0.00025,7e-05
0.00025,7e-05
0.00025,7e-05
0.00025,7e-05
0.00025,7e-05
0.00025,7e-05
0.00025,7e-05
0.00025,7e-05
0.00025,7e-05
0.00025,7e-05
0.00025,7e-05
0.00025,7e-05
0.00025,7e-05
0.00025,7e-05
0.00025,7e-05
0.00025,7e-05
0.00025,7e-05
0.00025,7e-05
0.00025,7e-05
0.00025,7e-05
0.00025,7e-05
0.00025,7e-05
0.00025,7e-05
0.00025,7e-05
0.00025,7e-05
0.00025,7e-05
0.00025,7e-05
0.00025,7e-05
0.00025,7e-05
0.00025,7e-05
0.00025,7e-05
0.00025,7e-05
0.00025,7e-05
0.00025,7e-05
0.00025,7e-05
0.00025,7e-05
0.00025,7e-05
0.00025,7e-05
0.00025,7e-05
0.00025,7e-05
0.00025,7e-05
0.00025,7e-05
0.00025,7e-05
0.00025,7e-05
0.00025,7e-05
0.00025,7e-05
0.00025,7e-05
0.00025,7e-05
0.00025,7e-05
0.00025,7e-05
0.00025,7e-05
0.00025,7e-05
0.00025,7e-05
0.00025,7e-05
0.00025,7e-05
0.00025,7e-05
0.00025,7e-05
0.00025,7e-05
0.00025,7e-05
0.00025,7e-05
0.00025,7e-05
0.00025,7e-05
0.00025,7e-05
0.00025,7e-05
0.00025,7e-05
0.00025,7e-05
0.00025,7e-05
0.00025,7e-05
0.00025,7e-05
0.00025,7e-05
0.00025,7e-05
0.00025,7e-05
0.00025,7e-05
0.00025,7e-05
0.00025,7e-05
0.00025,7e-05
0.00025,7e-05
0.00025,7e-05
0.00025,7e-05
0.00025,7e-05
0.00025,7e-05
0.00025,7e-05
0.00025,7e-05
0.00025,7e-05
0.00025,7e-05
0.00025,7e-05
0.00025,7e-05
0.00025,7e-05
0.00025,7e-05
0.00025,7e-05
0.00025,7e-05
0.00025,7e-05
0.00025,7e-05
0.00025,7e-05
0.00025,7e-05
0.00025,7e-05
0.00025,7e-05
0.00025,7e-05
0.00025,7e-05
0.00025,7e-05
0.00025,7e-05
0.00025,7e-05
0.00025,7e-05
0.00025,7e-05
0.00025,7e-05
0.00025,7e-05
0.00025,7e-05
0.00025,7e-05
0.00025,7e-05
0.00025,7e-05
0.00025,7e-05
0.00025,7e-05
0.00025,7e-05
0.00025,7e-05
0.00025,7e-05
0.00025,7e-05
0.00025,7e-05
0.00025,7e-05
0.00025,7e-05
0.00025,7e-05
0.00025,7e-05
0.00025,7e-05
0.00025,7e-05
0.00025,7e-05
0.00025,7e-05
0.00025,7e-05
0.00025,7e-05
0.00025,7e-05
0.00025,7e-05
0.00025,7e-05
0.00025,7e-05
0.00025,7e-05
0.00025,7e-05
0.00025,7e-05
0.00025,7e-05
0.00025,7e-05
0.00025,7e-05
0.00025,7e-05
0.00025,7e-05
0.00025,7e-05
0.00025,7e-05
0.00025,7e-05
0.00025,7e-05
0.00025,7e-05
0.00025,7e-05
0.00025,7e-05
0.00025,7e-05
0.00025,7e-05
0.00025,7e-05
0.00025,7e-05
0.00025,7e-05
0.00025,7e-05
0.00025,7e-05
0.00025,7e-05
0.00025,7e-05
0.00025,7e-05
0.00025,7e-05
0.00025,7e-05
0.00025,7e-05
0.00025,7e-05
0.00025,7e-05
0.00025,7e-05
0.00025,7e-05
0.00025,7e-05
0.00025,7e-05
0.00025,7e-05
0.00025,7e-05
0.00025,7e-05
0.00025,7e-05
0.00025,7e-05
0.00025,7e-05
0.00025,7e-05
0.00025,7e-05
0.00025,7e-05
0.00025,7e-05
0.00025,7e-05
0.00025,7e-05
0.00025,7e-05
0.00025,7e-05
0.00025,7e-05
0.00025,7e-05
0.00025,7e-05
0.00025,7e-05
0.00025,7e-05
0.00025,7e-05
0.00025,7e-05
0.00025,7e-05
0.00025,7e-05
0.00025,7e-05
0.00025,7e-05
0.00025,7e-05
0.00025,7e-05
0.00025,7e-05
0.00025,7e-05
0.00025,7e-05
0.00025,7e-05
0.00025,7e-05
0.00025,7e-05
0.00025,7e-05
0.00025,7e-05
0.00025,7e-05
0.00025,7e-05
0.00025,7e-05
0.00025,7e-05
0.00025,7e-05
0.00025,7e-05
0.00025,7e-05
0.00025,7e-05
0.00025,7e-05
0.00025,7e-05
0.00025,7e-05
0.00025,7e-05
0.00025,7e-05
0.00025,7e-05
0.00025,7e-05
0.00025,7e-05
0.00025,7e-05
0.00025,7e-05
0.00025,7e-05
0.00025,7e-05
0.00025,7e-05
0.00025,7e-05
0.00025,7e-05
0.00025,7e-05
0.00025,7e-05
0.00025,7e-05
0.00025,7e-05
0.00025,7e-05
0.00025,7e-05
0.00025,7e-05
0.00025,7e-05
0.00025,7e-05
0.00025,7e-05
0.00025,7e-05
0.00025,7e-05
0.00025,7e-05
0.00025,7e-05
0.00025,7e-05
0.00025,7e-05
0.00025,7e-05
0.00025,7e-05
0.00025,7e-05
0.00025,7e-05
0.00025,7e-05
0.00025,7e-05
0.00025,7e-05
0.00025,7e-05
0.00025,7e-05
0.00025,7e-05
0.00025,7e-05
0.00025,7e-05
0.00025,7e-05
0.00025,7e-05
0.00025,7e-05
0.00025,7e-05
0.00025,7e-05
0.00025,7e-05
0.00025,7e-05
0.00025,7e-05
0.00025,7e-05
0.00025,7e-05
0.00025,7e-05
0.00025,7e-05
0.00025,7e-05
0.00025,7e-05
0.00025,7e-05
0.00025,7e-05
0.00025,7e-05
0.00025,7e-05
0.00025,7e-05
0.00025,7e-05
0.00025,7e-05
0.00025,7e-05
0.00025,7e-05
0.00025,7e-05
0.00025,7e-05
0.00025,7e-05
0.00025,7e-05
0.00025,7e-05
0.00025,7e-05
0.00025,7e-05
0.00025,7e-05
0.00025,7e-05
0.00025,7e-05
0.00025,7e-05
0.00025,7e-05
0.00025,7e-05
0.00025,7e-05
0.00025,7e-05
0.00025,7e-05
0.00025,7e-05
0.00025,7e-05
0.00025,7e-05
0.00025,7e-05
0.00025,7e-05
0.00025,7e-05
0.00025,7e-05
0.00025,7e-05
0.00025,7e-05
0.00025,7e-05
0.00025,7e-05
0.00025,7e-05
0.00025,7e-05
0.00025,7e-05
0.00025,7e-05
0.00025,7e-05
0.00025,7e-05
0.00025,7e-05
0.00025,7e-05
0.00025,7e-05
0.00025,7e-05
0.00025,7e-05
0.00025,7e-05
0.00025,7e-05
0.00025,7e-05
0.00025,7e-05
0.00025,7e-05
0.00025,7e-05
0.00025,7e-05
0.00025,7e-05
0.00025,7e-05
0.00025,7e-05
0.00025,7e-05
0.00025,7e-05
0.00025,7e-05
0.00025,7e-05
0.00025,7e-05
0.00025,7e-05
0.00025,7e-05
0.00025,7e-05
0.00025,7e-05
0.00025,7e-05
0.00025,7e-05
0.00025,7e-05
0.00025,7e-05
0.00025,7e-05
0.00025,7e-05
0.00025,7e-05
0.00025,7e-05
0.00025,7e-05
0.00025,7e-05
0.00025,7e-05
0.00025,7e-05
0.00025,7e-05
0.00025,7e-05
0.00025,7e-05
0.00025,7e-05
0.00025,7e-05
0.00025,7e-05
0.00025,7e-05
0.00025,7e-05
0.00025,7e-05
0.00025,7e-05
0.00025,7e-05
0.00025,7e-05
0.00025,7e-05
0.00025,7e-05
0.00025,7e-05
0.00025,7e-05
0.00025,7e-05
0.00025,7e-05
0.00025,7e-05
0.00025,7e-05
0.00025,7e-05
0.00025,7e-05
0.00025,7e-05
0.00025,7e-05
0.00025,7e-05
0.00025,7e-05
0.00025,7e-05
0.00025,7e-05
0.00025,7e-05
0.00025,7e-05
0.00025,7e-05
0.00025,7e-05
0.00025,7e-05
0.00025,7e-05
0.00025,7e-05
0.00025,7e-05
0.00025,7e-05
0.00025,7e-05
0.00025,7e-05
0.00025,7e-05
0.00025,7e-05
0.00025,7e-05
0.00025,7e-05
0.00025,7e-05
0.00025,7e-05
0.00025,7e-05
0.00025,7e-05
0.00025,7e-05
0.00025,7e-05
0.00025,7e-05
0.00025,7e-05
0.00025,7e-05
0.00025,7e-05
0.00025,7e-05
0.00025,7e-05
0.00025,7e-05
0.00025,7e-05
0.00025,7e-05
0.00025,7e-05
0.00025,7e-05
0.00025,7e-05
0.00025,7e-05
0.00025,7e-05
0.00025,7e-05
0.00025,7e-05
0.00025,7e-05
0.00025,7e-05
0.00025,7e-05
0.00025,7e-05
0.00025,7e-05
0.00025,7e-05
0.00025,7e-05
0.00025,7e-05
0.00025,7e-05
0.00025,7e-05
0.00025,7e-05
0.00025,7e-05
0.00025,7e-05
0.00025,7e-05
0.00025,7e-05
0.00025,7e-05
0.00025,7e-05
0.00025,7e-05
0.00025,7e-05
0.00025,7e-05
0.00025,7e-05
0.00025,7e-05
0.00025,7e-05
0.00025,7e-05
0.00025,7e-05
0.00025,7e-05
0.00025,7e-05
0.00025,7e-05
0.00025,7e-05
0.00025,7e-05
0.00025,7e-05
0.00025,7e-05
0.00025,7e-05
0.00025,7e-05
0.00025,7e-05
0.00025,7e-05
0.00025,7e-05
0.00025,7e-05
0.00025,7e-05
0.00025,7e-05
0.00025,7e-05
0.00025,7e-05
0.00025,7e-05
0.00025,7e-05
0.00025,7e-05
0.00025,7e-05
0.00025,7e-05
0.00025,7e-05
0.00025,7e-05
0.00025,7e-05
0.00025,7e-05
0.00025,7e-05
0.00025,7e-05
0.00025,7e-05
0.00025,7e-05
0.00025,7e-05
0.00025,7e-05
0.00025,7e-05
0.00025,7e-05
0.00025,7e-05
0.00025,7e-05
0.00025,7e-05
0.00025,7e-05
0.00025,7e-05
0.00025,7e-05
0.00025,7e-05
0.00025,7e-05
0.00025,7e-05
0.00025,7e-05
0.00025,7e-05
0.00025,7e-05
0.00025,7e-05
0.00025,7e-05
0.00025,7e-05
0.00025,7e-05
0.00025,7e-05
0.00025,7e-05
0.00025,7e-05
0.00025,7e-05
0.00025,7e-05
0.00025,7e-05
0.00025,7e-05
0.00025,7e-05
0.00025,7e-05
0.00025,7e-05
0.00025,7e-05
0.00025,7e-05
0.00025,7e-05
0.00025,7e-05
0.00025,7e-05
0.00025,7e-05
0.00025,7e-05
0.00025,7e-05
0.00025,7e-05
0.00025,7e-05
0.00025,7e-05
0.00025,7e-05
0.00025,7e-05
0.00025,7e-05
0.00025,7e-05
0.00025,7e-05
0.00025,7e-05
0.00025,7e-05
0.00025,7e-05
0.00025,7e-05
0.00025,7e-05
0.00025,7e-05
0.00025,7e-05
0.00025,7e-05
0.00025,7e-05
0.00025,7e-05
0.00025,7e-05
0.00025,7e-05
0.00025,7e-05
0.00025,7e-05
0.00025,7e-05
0.00025,7e-05
0.00025,7e-05
0.00025,7e-05
0.00025,7e-05
0.00025,7e-05
0.00025,7e-05
0.00025,7e-05
0.00025,7e-05
0.00025,7e-05
0.00025,7e-05
0.00025,7e-05
0.00025,7e-05
0.00025,7e-05
0.00025,7e-05
0.00025,7e-05
0.00025,7e-05
0.00025,7e-05
0.00025,7e-05
0.00025,7e-05
0.00025,7e-05
0.00025,7e-05
0.00025,7e-05
0.00025,7e-05
0.00025,7e-05
0.00025,7e-05
0.00025,7e-05
0.00025,7e-05
0.00025,7e-05
0.00025,7e-05
0.00025,7e-05
0.00025,7e-05
0.00025,7e-05
0.00025,7e-05
0.00025,7e-05
0.00025,7e-05
0.00025,7e-05
0.00025,7e-05
0.00025,7e-05
0.00025,7e-05
0.00025,7e-05
0.00025,7e-05
0.00025,7e-05
0.00025,7e-05
0.00025,7e-05
0.00025,7e-05
0.00025,7e-05
0.00025,7e-05
0.00025,7e-05
0.00025,7e-05
0.00025,7e-05
0.00025,7e-05
0.00025,7e-05
0.00025,7e-05
0.00025,7e-05
0.00025,7e-05
0.00025,7e-05
0.00025,7e-05
0.00025,7e-05
0.00025,7e-05
0.00025,7e-05
0.00025,7e-05
0.00025,7e-05
0.00025,7e-05
0.00025,7e-05
0.00025,7e-05
0.00025,7e-05
0.00025,7e-05
0.00025,7e-05
0.00025,7e-05
0.00025,7e-05
0.00025,7e-05
0.00025,7e-05
0.00025,7e-05
0.00025,7e-05
0.00025,7e-05
0.00025,7e-05
0.00025,7e-05
0.00025,7e-05
0.00025,7e-05
0.00025,7e-05
0.00025,7e-05
0.00025,7e-05
0.00025,7e-05
0.00025,7e-05
0.00025,7e-05
0.00025,7e-05
0.00025,7e-05
0.00025,7e-05
0.00025,7e-05
0.00025,7e-05
0.00025,7e-05
0.00025,7e-05
0.00025,7e-05
0.00025,7e-05
0.00025,7e-05
0.00025,7e-05
0.00025,7e-05
0.00025,7e-05
0.00025,7e-05
0.00025,7e-05
0.00025,7e-05
0.00025,7e-05
0.00025,7e-05
0.00025,7e-05
0.00025,7e-05
0.00025,7e-05
0.00025,7e-05
0.00025,7e-05
0.00025,7e-05
0.00025,7e-05
0.00025,7e-05
0.00025,7e-05
0.00025,7e-05
0.00025,7e-05
0.00025,7e-05
0.00025,7e-05
0.00025,7e-05
0.00025,7e-05
0.00025,7e-05
0.00025,7e-05
0.00025,7e-05
0.00025,7e-05
0.00025,7e-05
0.00025,7e-05
0.00025,7e-05
0.00025,7e-05
0.00025,7e-05
0.00025,7e-05
0.00025,7e-05
0.00025,7e-05
0.00025,7e-05
0.00025,7e-05
0.00025,7e-05
0.00025,7e-05
0.00025,7e-05
0.00025,7e-05
0.00025,7e-05
0.00025,7e-05
0.00025,7e-05
0.00025,7e-05
0.00025,7e-05
0.00025,7e-05
0.00025,7e-05
0.00025,7e-05
0.00025,7e-05
0.00025,7e-05
0.00025,7e-05
0.00025,7e-05
0.00025,7e-05
0.00025,7e-05
0.00025,7e-05
0.00025,7e-05
0.00025,7e-05
0.00025,7e-05
0.00025,7e-05
0.00025,7e-05
0.00025,7e-05
0.00025,7e-05
0.00025,7e-05
0.00025,7e-05
0.00025,7e-05
0.00025,7e-05
0.00025,7e-05
0.00025,7e-05
0.00025,7e-05
0.00025,7e-05
0.00025,7e-05
0.00025,7e-05
0.00025,7e-05
0.00025,7e-05
0.00025,7e-05
0.00025,7e-05
0.00025,7e-05
0.00025,7e-05
0.00025,7e-05
0.00025,7e-05
0.00025,7e-05
0.00025,7e-05
0.00025,7e-05
0.00025,7e-05
0.00025,7e-05
0.00025,7e-05
0.00025,7e-05
0.00025,7e-05
0.00025,7e-05
0.00025,7e-05
0.00025,7e-05
0.00025,7e-05
0.00025,7e-05
0.00025,7e-05
0.00025,7e-05
0.00025,7e-05
0.00025,7e-05
0.00025,7e-05
0.00025,7e-05
0.00025,7e-05
0.00025,7e-05
0.00025,7e-05
0.00025,7e-05
0.00025,7e-05
0.00025,7e-05
0.00025,7e-05
0.00025,7e-05
0.00025,7e-05
0.00025,7e-05
0.00025,7e-05
0.00025,7e-05
0.00025,7e-05
0.00025,7e-05
0.00025,7e-05
0.00025,7e-05
0.00025,7e-05
0.00025,7e-05
0.00025,7e-05
0.00025,7e-05
0.00025,7e-05
0.00025,7e-05
0.00025,7e-05
0.00025,7e-05
0.00025,7e-05
0.00025,7e-05
0.00025,7e-05
0.00025,7e-05
0.00025,7e-05
0.00025,7e-05
0.00025,7e-05
0.00025,7e-05
0.00025,7e-05
0.00025,7e-05
0.00025,7e-05
0.00025,7e-05
0.00025,7e-05
0.00025,7e-05
0.00025,7e-05
0.00025,7e-05
0.00025,7e-05
0.00025,7e-05
0.00025,7e-05
0.00025,7e-05
0.00025,7e-05
0.00025,7e-05
0.00025,7e-05
0.00025,7e-05
0.00025,7e-05
0.00025,7e-05
0.00025,7e-05
0.00025,7e-05
0.00025,7e-05
