Reactions	average	stdev
12DGR	6.393	13.543636297423504
3MBTranc0	0.0	0.0
ABAL_c0	0.0	0.0
ACACT1x	0.0768	0.041738408093102246
ACKr	206.6261	109.7293298879743
ACN	-648.715	12.614566887306111
ADH	99.8007	33.22876658349498
AGAT2	0.0002	4.7116288574049196e-17
AlaTranc0	-0.0217	0.015107992050392972
ARAB_c0	0.0098	0.009104790217438392
ArgABC_c0	3.2993	3.28788850014716
AsnTranc0	-2.0638	1.908370692729861
AspABC_c0	13.0483	11.85596512048522
AspTranc0	805.9116	52.849349575503965
ATPM	0.0594	1.3796858381205467e-14
ATPS4r	301.4437	106.00538172273986
bio2	0.0018	4.0162412726268747e-16
c14_c0	0.0	1.961222005706987e-18
c160_c0	0.0002	6.79049234924429e-17
c161_c0	0.0001	3.1422971189782896e-17
c17_c0	0.0	7.844888022827948e-18
c180_c0	0.0	1.961222005706987e-18
c181_c0	0.0	2.147592341496836e-18
c19_c0	0.0	2.281805821972133e-18
Ca2t	-0.0	5.815545081277331e-18
CARBO	0.0001	7.510024071803482e-18
cdc0	0.0015	1.5928137187261123e-16
cds1_c0	0.0001	2.0296005508188506e-17
CitTranc0	-0.0088	0.008806534750456228
CO2t	642.3674	40.03038755031372
COt	0.0	0.0
CRT	0.037	0.027519633004896737
CS	-648.715	12.614566887306186
CysABC_c0	9.9704	8.113138146259642
CysTranc0	-9.9239	8.08260547206649
DGK	6.3943	13.543636297423513
DNA	0.0	8.92808187521905e-18
ENO	-21.4275	35.45097807917796
EX_3METBUTAL_e	0.0	0.0
EX_3METBUTOL_e	0.0	0.0
EX_4HBA_e	0.0	1.0331321012590991e-19
EX_4HBUT_e	0.0165	0.014634797478863397
EX_AC_e	0.0286	0.030044779684161103
EX_ACAL_e	0.026	0.028672191562168978
EX_AD_e	0.0104	0.009661269041954435
EX_AKG_e	0.0086	0.009231468487989673
EX_ALA_e	0.0161	0.014838218484278522
EX_ARAB_e	0.0098	0.009104790217441395
EX_ARG_e	0.0086	0.008150063493433848
EX_ASN_e	0.0128	0.01353861936729252
EX_ASP_e	0.0112	0.012400292741193988
EX_BDOH_e	0.0143	0.013464145865795184
EX_BIOMASS1_e	0.0018	4.047049607522176e-16
EX_BIOMASS2_e	0.0028	2.0016178068623916e-16
EX_BT_e	0.0	1.4412147509666365e-13
EX_BUAC_e	0.0173	0.01589349695009671
EX_BUOL_e	0.0292	0.025537761577832243
EX_HEOL_e	0.0147	0.01335653599821297
EX_BUTSUL_e	0.0	0.0
EX_CA_e	-0.0	5.7970555837870136e-18
EX_CHL_e	0.0	3.203868260555424e-05
EX_CIT_e	0.0	0.0
EX_CITR_e	0.0088	0.00880653475045623
EX_CO_e	-4.8	3.833510877427711e-13
EX_CO2_e	0.0444	0.12096654655923325
EX_Co2_e	-0.0	3.599293705528054e-15
EX_COA_e	0.0	0.0
EX_COBCE_e	0.0	3.112425311040036e-15
EX_CRO_e	0.0	0.0
EX_CU_e	-0.0	1.0684266368578197e-16
EX_CYS_e	0.0147	0.013445483784812898
EX_DALA_e	0.0156	0.01503093568572059
EX_GAL_e	0.0	0.0
EX_DMET_e	0.0	0.0
EX_DRIB_e	0.0	0.0
EX_DSER_e	0.0	0.0
EX_ETHAM_e	0.0186	0.01632228795974586
EX_ETOH_e	0.02	0.016916843702695823
EX_ETSUL_e	0.0	0.0
EX_FAD_e	0.002	0.0019394809047995753
EX_FE2_e	-0.0	5.7995078251837154e-18
EX_FE3_e	-0.0	2.2236020872750893e-18
EX_FMN_e	0.0045	0.004133771380698588
EX_FOL_e	0.0042	0.0032587073233087942
EX_FOR_e	0.0066	0.004081082180661033
EX_FRMD_e	0.1244	0.07651022133104196
EX_FRU_e	0.0057	0.00621211448823155
EX_FUM_e	0.0	0.0
EX_GABA_e	0.0204	0.0170197699865336
EX_GL_e	0.0157	0.015217855269947522
EX_GL3P_e	0.0	0.0
EX_GLAL_e	0.0	2.9093558464219266e-13
EX_GLC_e	-0.0	2.5696331572845358e-15
EX_GLN_e	0.0104	0.009755886211271882
EX_GLU_e	0.0095	0.008604256628245549
EX_GLY_e	0.0177	0.01576911307688321
EX_GLYAL_e	0.0149	0.014310406019575807
EX_GLYB_e	0.0	0.0
EX_H_e	-665.6584	96.98712362428986
EX_H2_e	11.7241	11.715751381736037
EX_H2O_e	249.8845	40.496457549026516
EX_H2S_e	61.8809	10.124926277295936
EX_H2SO3_e	0.0	0.0
EX_HCO3_e	0.0	9.911728416145925e-14
EX_HDBUT_e	0.0129	0.012264468336712731
EX_HEPT_e	0.0	0.0
EX_HEXA_e	0.0141	0.027789136973332223
EX_HEXSUL_e	0.0	0.0
EX_HG2_e	0.0	0.0
EX_HIS_e	0.0083	0.007865709084117415
EX_HNO2_e	-0.0	1.5085608756096764e-14
EX_HYXN_e	0.0123	0.014371382466934587
EX_ILE_e	0.0218	0.01248191901263673
EX_K_e	-0.0021	2.2583995309496495e-12
EX_LAC_D_e	0.0158	0.015858158022656582
EX_LAC_L_e	0.0175	0.017801187763049717
EX_LACTOSE_e	0.0	0.0
EX_LEU_e	0.0247	0.021287259590200117
EX_LYS_e	0.0085	0.008370405688328518
EX_MAL_e	0.0098	0.008627297113860127
EX_MALN_e	0.0	0.0
EX_MAN_e	0.0085	0.008844814334010607
EX_MEOH_e	0.0	0.0
EX_MET_e	0.0107	0.011167620691249784
EX_METSA_e	0.0	0.0
EX_MG_e	-0.0003	6.431678930666635e-16
EX_MN_e	-0.0	7.29558144430955e-20
EX_MOBD_e	-0.0	4.903484478458213e-10
EX_N2_e	0.0	0.0
EX_NA_e	0.0	1.0523450920023404e-13
EX_NH3_e	-1.0284	0.13747465614196272
EX_NI2_e	-0.0	1.1002426127654348e-12
EX_NICA_e	0.0112	0.00878441170911933
EX_NICD_e	0.0104	0.008786590146851514
EX_O2_e	-0.0	3.7262875979564145e-15
EX_OAA_e	0.0153	0.01652581411260591
EX_OCTA_e	0.0	0.0
EX_ORN_e	0.0102	0.009744156478158265
EX_PABA_e	-0.0095	0.00461309424209529
EX_PENT_e	0.0095	0.008364970312375318
EX_PHE_e	0.0196	0.010953499671517637
EX_PI_e	-0.0166	0.005222056150466314
EX_PNTO_e	0.0337	0.011946161737913017
EX_PPI_e	-0.0035	0.0036988820829741923
EX_PRDL_e	0.0	0.0
EX_PRO_e	0.0197	0.01507125822504785
EX_PROGLY_e	0.0	0.0
EX_PROL_e	0.0152	0.014592143471458374
EX_PROP_e	0.0197	0.018633161917541045
EX_PTRSC_e	0.0	0.0
EX_PYR_e	0.0129	0.012362251673161883
EX_RIB_e	0.0	0.0
EX_RIBFLAV_e	0.0056	0.006298031448785235
EX_RMN_e	0.0	0.0
EX_SER_e	0.0141	0.0159911516709535
EX_SLF_e	-61.9101	10.121510473392622
EX_SO3_e	0.0	0.0
EX_SPRMD_e	0.0	0.0
EX_SUC_e	0.0	0.0
EX_SUCC_e	0.011	0.010847809573751746
EX_SULA_e	0.0	0.0
EX_THDP_e	0.0	0.0
EX_THF_e	0.0053	0.003824438358943025
EX_THJ_e	-0.0	1.5808136908998497e-13
EX_THME_e	0.0	0.0
EX_THR_e	0.0109	0.009735329629372224
EX_TRP_e	0.0179	0.008222576070397312
EX_TYR_e	0.0106	0.006511615354222096
EX_URA_e	0.0185	0.01567109423340457
EX_UREA_e	0.0377	0.04154545812893981
EX_VAC_e	-0.0	8.11444259143371e-18
EX_VAL_e	0.0126	0.011717381676216143
EX_XYL_e	0.0093	0.008571386579602743
EX_ZN_e	-0.0	3.353863134302212e-14
FBA	-21.2295	18.837843783850072
FBP	33.1477	20.53657322876313
Fe2t	0.0	0.0
Fe3t	0.0	2.2236020872750893e-18
FormTranc0	-0.1244	0.07651022133104203
FUM	63.0762	37.55870009510592
GAP	-51.1677	38.636442844409615
GAT1_CB	0.0002	4.7116288574049196e-17
GCV	0.322	0.21057191637556646
GLC	-0.0	1.335654017300357e-20
GLK	0.0	0.0
GlnABC_c0	8.8607	7.958591494117894
GlnTranc0	-289.2184	133.31204555637112
GluABC_c0	10.4948	9.197516530580648
GluTranc0	-382.2375	135.1606857678636
H2Ot	-583.7051	68.32087084716976
H2STranc0	2.4746	1.8037924070496993
H2t	39.216	22.81511420380729
HBD	0.064	0.039502124016161926
HisTranc0	0.0337	0.042301742863871755
HPYRr	0.0015	0.0011416263309747385
ICDHyr	-648.715	12.614566887306204
IsoButTranc0	0.0	0.0
Kt	29.863	25.08998027531842
LDH	0.0	0.0
LDH_D	-348.8437	72.35267766713078
leq000001	8.6658	7.975402757784752
leq000002	-394.1981	58.248932784478065
leq000003	0.6402	0.6455296545501863
leq000004	518.638	62.29884115078287
M002	-325.1551	46.6144688420001
MANa	0.0	0.0
MANb	0.0	0.0
ME2	23.4074	25.052058810341354
MetTranc0	-10.5913	10.050234427296418
MGSa	4.5041	4.393401568456797
N2t	0.0	0.0
NaDiffusion_c0	0.0	0.0
Nat	0.0074	0.0069180405889527246
NH3t	-506.8586	63.818438671890036
O2t	0.0	3.1022348903838736e-14
PEPTIDO	0.0002	3.2278455447425763e-17
PETOHM	0.0001	1.2301999689701825e-17
PFK	11.9182	13.898921225180379
PFL	0.2411	0.2213375675054227
PGI	266.6075	129.83311333602268
PGK	-51.1677	38.63644284440814
PGM	0.0007	8.298958270906977e-16
GPM	21.4275	35.45097807917775
PGPP	0.0013	4.894424508799121e-16
PGSA	0.0013	4.894424508799121e-16
PheTranc0	-0.0068	0.006216238306164406
PHOSPHO	0.0001	4.027833514608713e-17
POLYGP	0.0001	1.5459279078856978e-17
PPC	23.0209	19.71717694819246
PPCK	13.9599	12.690535456135017
PPS	14.9232	13.998260816338709
PROTEIN	0.001	2.5937015889553023e-16
ProTranc0	-366.5331	183.6843971777179
PSD	0.0001	1.994487867634112e-17
PTA	671.858	146.91774641188206
PYK	19.0998	18.563353931838858
Rckl013	116.3507	28.968106982111788
Rckl014	200.7538	45.83781920252663
Rckl019	-13.5718	36.60806856756988
Rckl021	10.0528	9.505558003563243
Rckl027	-31.8327	12.112736093151337
Rckl028	-0.8256	0.3286789137025628
Rckl029	0.0007	8.931139073207409e-17
Rckl030	0.0	0.0
Rckl033	0.0	0.0
Rckl034	0.0	0.0
Rckl035	0.0	0.0
Rckl036	7.6027	6.72153159574472
Rckl037	7.6027	6.72153159574472
Rckl038	7.6027	6.72153159574472
Rckl039	7.6027	6.72153159574472
Rckl040	0.0	0.0
Rckl041	0.0	0.0
Rckl042	0.0	0.0
Rckl043	0.001	1.5706388388167765e-16
Rckl044	0.001	1.5706388388167765e-16
Rckl045	0.0	0.0
Rckl046	0.0001	4.0263254167801227e-17
Rckl047	0.0	0.0
Rckl048	0.0064	0.004666025524417491
Rckl049	0.0	0.0
Rckl050	0.0	0.0
Rckl051	0.0	0.0
Rckl052	29.7387	21.825164533226875
Rckl053	0.001	1.6183541273105908e-16
Rckl054	287.2193	131.379242013168
Rckl057	4.5041	4.3934015684567855
Rckl058	4.5041	4.3934015684567855
Rckl062	14.1093	12.777092496494674
Rckl064	9.9536	9.164891680711733
Rckl068	-0.0095	0.004613094242013237
Rckl069	0.0015	0.0011416263309801137
Rckl070	0.0095	0.00461309424201786
Rckl078	54.0915	10.716484882130986
Rckl079	21.7562	14.688244253548566
Rckl080	0.0288	0.03065225547623604
Rckl081	0.0288	0.030652255476236054
Rckl082	0.0288	0.030652255476214217
Rckl083	0.0288	0.030652255476176615
Rckl084	0.0	0.0
Rckl085	9.9666	9.762848985053413
Rckl086	271.5337	147.2685202235421
Rckl087	0.0095	0.008364970312374943
Rckl088	0.0095	0.008364970312374941
Rckl089	0.0095	0.008364970312374941
Rckl090	0.0095	0.008364970312374941
Rckl091	0.0095	0.008364970312375177
Rckl092	0.0	0.0
Rckl093	0.0	0.0
Rckl094	0.0	0.0
Rckl095	0.0	0.0
Rckl096	0.0	0.0
Rckl097	13.5241	36.611802427488136
Rckl098	-0.0279	0.026964214513976566
Rckl099	0.0113	0.029932180918147894
Rckl100	0.0113	0.029932180918154826
Rckl101	-0.0	1.0518302802928886e-13
Rckl102	-0.0	5.24187869389478e-13
Rckl103	0.0	1.9247142885576624e-13
Rckl104	54.0432	10.717636186063075
Rckl105	7.5444	7.759932486364988
Rckl106	10.776	12.801822420974522
Rckl107	0.0	0.0
Rckl108	8.997	8.145299950944844
Rckl109	8.997	8.145299950944842
Rckl110	0.0475	0.07575641989037632
Rckl111	0.0475	0.07575641989037633
Rckl112	0.0475	0.07575641989034378
Rckl113	23.9983	17.306862338421865
Rckl114	431.4437	174.23120111735815
Rckl115	0.0292	0.025537761577832257
Rckl116	9.7607	9.288186576004689
Rckl117	311.9135	144.99637601930849
Rckl118	-722.7154	115.02223919390404
Rckl119	-203.942	28.77474254381233
Rckl120	-0.1027	0.08411643565538604
Rckl121	82.5328	61.88035440467619
Rckl122	0.0	0.0
Rckl123	0.0	0.0
Rckl124	4.28	3.5687370790447592
Rckl125	16.3466	12.864274806797646
Rckl126	0.0	0.0
Rckl127	0.027	0.033222226464865875
Rckl128	54.0162	10.715079399072945
Rckl129	0.0129	0.012264468336712731
Rckl130	-0.0	1.3233790874102406e-14
Rckl131	-0.0	3.4654037985875863e-14
Rckl132	0.0	0.0
Rckl133	0.0463	0.025100006310164527
Rckl134	0.0	0.0
Rckl135	-0.0	1.6108294312334368e-13
Rckl136	20.6418	13.119491553983769
Rckl137	0.0147	0.013356535998220623
Rckl138	0.0147	0.013356535998220053
Rckl139	0.0	1.0571019157328106e-13
Rckl140	0.0	2.6942464633893267e-13
Rckl141	0.0292	0.025537761577832257
Rckl142	0.0	2.846082714172977e-13
Rckl143	0.0	0.0
Rckl144	0.0064	0.004666025524473051
Rckl145	29.7403	21.825247655748402
Rckl146	-0.0	3.808156662842572e-09
Rckl147	4.6786	5.683475187621921
Rckl148	0.0	0.0
Rckl149	0.0	0.0
Rckl150	0.8256	0.32867891370253494
Rckl151	0.0	0.0
Rckl152	0.0	0.0
Rckl153	0.0	0.0
Rckl154	0.0015	0.0011416263309730022
Rckl155	0.0	0.0
Rckl156	2.0681	2.7785427725941063
Rckl157	0.0	0.0
Rckl158	0.0	0.0
Rckl159	0.0129	0.012264468336712731
Rckl160	39.6688	35.07637227363426
Rckl161	0.0	0.0
Rckl162	0.0003	1.7883878069496312e-17
Rckl163	0.0	0.0
Rckl164	20.6266	13.121238234746285
Rckl165	60.0035	31.646907952100822
Rckl167	350.9364	94.58244550574328
Rckl168	81.4406	33.05166487645715
Rckl169	211.4891	44.50509421494619
Rckl170	-0.1918	0.2523138918792163
Rckl171	9.4001	9.068929747560114
Rckl172	0.0	0.0
Rckl173	0.0005	0.00016363472159456677
Rckl174	0.0	1.3057629675588618e-14
Rckl175	0.0	0.0
Rckl176	0.0	0.0
Rckl177	0.0	0.0
Rckl178	47.9675	16.897025600291673
Rckl179	11.5022	9.041452060120818
Rckl180	-0.0	1.4224403177020072e-13
Rckl181	3.3378	3.0902373964974084
Rckl182	-56.1318	10.51459877789494
Rckl183	1.7051	1.557528564351141
Rckl184	0.0	0.0
Rckl185	57.7646	10.780571480513773
Rckl186	0.0	4.401425264221693e-15
Rckl187	3.3378	3.0902373964974084
Rckl188	0.0	0.0
Rckl189	32.7294	12.122975913512052
Rckl190	0.0255	0.01928752526066036
Rckl191	0.0255	0.019287525260365704
Rckl192	-261.8303	159.7642571517919
Rckl193	0.0255	0.01928752526038449
Rckl194	0.0255	0.01928752526038448
Rckl195	0.0255	0.01928752526038448
Rckl196	0.0255	0.01928752526038447
Rckl197	0.0255	0.019287525260384485
Rckl198	0.0255	0.01928752526061672
Rckl199	0.0	0.0
Rckl200	0.0677	0.04665867922491844
Rckl201	0.0677	0.04665867922492063
Rckl202	0.0179	0.006945823159395348
Rckl203	0.0073	0.005596433403265454
Rckl204	23.3204	10.943419522763154
Rckl205	-12.8424	8.728225005309131
Rckl206	4.7981	4.560492994073991
Rckl207	17.6073	9.9784042753106
Rckl208	17.6073	9.9784042753106
Rckl209	4.7981	4.560492994073991
Rckl210	-0.86	9.430694233153208
Rckl211	4.9495	5.043644865756566
Rckl212	-11.2077	11.797049043148702
Rckl213	-5.3877	5.422765856551578
Rckl214	5.5232	5.415011416610128
Rckl215	-26.7999	136.00192963681786
Rckl216	-0.1355	0.11718674553835999
Rckl217	17.8067	11.745903018067983
Rckl218	16.2128	12.710255895221866
Rckl219	167.8438	104.09664732508342
Rckl220	0.3241	0.2558238743119345
Rckl221	0.1143	0.12018932122820424
Rckl222	5.9741	5.881182406419804
Rckl223	-5.668	5.881769910284825
Rckl224	0.3061	0.25718930494315806
Rckl225	123.0458	71.84098752604734
Rckl226	0.0	0.0
Rckl227	74.8319	71.455161393108
Rckl228	145.4387	102.33872915115343
Rckl229	0.1918	0.2523138918792999
Rckl230	7.0795	7.1130663903267015
Rckl231	5.5232	5.415011416610126
Rckl232	0.0106	0.0076645883627425365
Rckl233	0.0	0.0
Rckl234	0.0	0.0
Rckl235	0.0	0.0
Rckl236	5.4436	4.752195189829884
Rckl237	0.0145	0.010315498655413927
Rckl238	-0.0145	0.010315498655416174
Rckl239	394.3552	164.50894452793426
Rckl240	0.0145	0.010315498655419333
Rckl241	0.0145	0.010315498655412418
Rckl242	4.2705	3.817047597136854
Rckl243	6.6927	4.082318900440054
Rckl244	2.8664	2.407138417892021
Rckl245	0.384	0.24524852523482868
Rckl246	24.4955	12.000036571061518
Rckl247	10.5544	8.099916473150815
Rckl248	11.9282	11.106106406418519
Rckl249	3.5378	3.6861458221949963
Rckl250	21.4685	14.316519347437632
Rckl251	-0.0	1.1213703095099825e-09
Rckl252	23.4638	14.231939340212518
Rckl253	0.0001	4.859186258083913e-15
Rckl254	17.7088	16.988199631974574
Rckl255	4.7981	4.560492994073992
Rckl256	5.668	5.88176991028483
Rckl257	0.1143	0.12018932122820374
Rckl258	6.2195	6.068574587856529
Rckl259	0.1355	0.11718674553839364
Rckl260	0.0	0.0
Rckl261	103.2043	29.833778986943397
Rckl262	0.0	0.0
Rckl263	0.384	0.24524852503573505
Rckl264	96.9038	28.47190486609337
Rckl265	-0.0	1.1213918828135631e-09
Rckl266	5.7629	5.588244363966265
Rckl267	0.1715	0.1794665166641427
Rckl268	-16.3774	15.018754175409265
Rckl269	3.9007	3.8496694511926144
Rckl270	10.4965	10.298879857452537
Rckl271	9.253	8.393896047954984
Rckl272	8.5912	7.874389185716764
Rckl273	11.4407	10.07186236228673
Rckl274	9.5274	8.478694707571007
Rckl275	13.814	14.300542281086711
Rckl276	0.0	0.0
Rckl277	0.0	1.1213656829587184e-09
Rckl278	4.8213	4.723339355088746
Rckl279	3.4414	3.3145028866829245
Rckl280	8.2804	6.811516388118848
Rckl281	9.8377	8.720166660377055
Rckl282	9.5006	9.56380459603517
Rckl283	10.4547	10.879086804571683
Rckl284	17.1086	18.09292690683105
Rckl285	10.3738	9.366458327786384
Rckl286	9.6618	9.955456033402166
Rckl287	7.964	7.206076111808753
Rckl288	5.8724	5.783013546594238
Rckl289	16.9776	14.252842299041381
Rckl290	11.0947	9.814790537386278
Rckl291	9.1419	8.973736273276147
Rckl292	3.3378	3.0902373964981713
Rckl293	-0.0204	0.012177743329251825
Rckl294	0.0	0.0
Rckl295	-394.3407	164.51163408316117
Rckl296	6.8164	5.892521633585113
Rckl297	28.109	32.806488860649445
Rckl298	0.1715	0.17946651666416835
Rckl299	0.3062	0.257189304943154
Rckl300	0.1356	0.11718674553836098
Rckl301	0.2126	0.16978172967365357
Rckl302	-0.0	3.808156657728815e-09
Rckl303	4.1637	3.1175879699402667
Rckl304	0.0	1.2736932174634005e-13
Rckl305	0.0	0.0
Rckl306	7.8532	8.590243732620419
Rckl307	3.5378	3.686145822195
Rckl308	0.0	9.383001115137052e-15
Rckl309	5.2054	4.716381435517418
Rckl310	-888.1364	34.553663243759964
Rckl311	12.7787	13.24796200473379
Rckl312	64.5498	32.43105540114955
Rckl313	26.5588	23.36528992227673
Rckl314	11.9053	13.911335756834859
Rckl315	4.8146	4.418690798473607
Rckl316	6.9045	7.0735352342343205
Rckl317	0.0	0.0
Rckl318	0.0271	0.02335493752489663
Rckl319	-82.5262	61.875332463775855
Rckl320	19.2799	25.4612599199171
Rckl321	244.0183	154.38597533914907
Rckl322	13.5029	36.61279129226296
Rckl323	1.1798	0.5654268678959202
Rckl324	0.3117	0.3066601936891743
Rckl325	0.0644	0.09121750569157511
Rckl326	0.0	0.0
Rckl327	0.0	0.0
Rckl328	0.0	0.0
Rckl329	0.133	0.151813532807602
Rckl330	0.8675	0.43950572687365425
Rckl331	0.2358	0.2200360269985924
Rckl332	0.2358	0.22003602699859245
Rckl333	0.0	0.0
Rckl334	1.1798	0.5654268678959212
Rckl335	1.1314	0.5614725887520076
Rckl336	1.1314	0.5614725887504332
Rckl337	0.2358	0.2200360269985924
Rckl338	0.0	0.0
Rckl339	0.0	0.0
Rckl340	0.0007	0.00017683652398396368
Rckl341	0.8839	0.38396485572060696
Rckl342	0.3724	0.17096793022751244
Rckl343	0.2991	0.1679130419084237
Rckl344	0.0	0.0
Rckl345	0.0476	0.03320548852965183
Rckl346	0.0733	0.06137228529508571
Rckl347	0.0	1.6259383305137545e-13
Rckl348	0.0	0.0
Rckl349	0.0	0.0
Rckl350	0.0	1.3399825517020468e-14
Rckl351	0.2364	0.12960372629407851
Rckl352	0.0	0.0
Rckl353	0.0	0.0
Rckl354	-0.0	6.672756656329702e-15
Rckl355	0.0476	0.03320548852963879
Rckl356	0.0	0.0
Rckl357	-0.0	1.3732598614064812e-14
Rckl358	0.0	0.0
Rckl359	0.0	0.0
Rckl360	0.0	0.0
Rckl361	0.0	0.0
Rckl362	-0.0	6.925593634586088e-14
Rckl363	0.0	0.0
Rckl364	0.0	2.762074395922688e-05
Rckl365	-0.0	1.2450488968322145e-14
Rckl366	0.0002	0.0001129846962441145
Rckl367	0.0733	0.06137380909846314
Rckl368	0.0088	0.008171362771118072
Rckl369	0.0088	0.008171362771119019
Rckl370	0.0243	0.01613868233263993
Rckl371	0.0088	0.008171362771118072
Rckl372	0.0243	0.01613868233263993
Rckl373	0.0463	0.02510000631013322
Rckl374	0.0088	0.008171362771118075
Rckl375	0.0088	0.00817136277111791
Rckl376	277.0564	141.7830004914462
Rckl377	0.0148	0.01692162574571546
Rckl378	0.0148	0.01692162574571546
Rckl379	0.0148	0.016921625745715464
Rckl380	0.0148	0.016921625745715436
Rckl381	0.0148	0.016921625745713025
Rckl382	0.0148	0.01692162574571255
Rckl383	0.0	0.0
Rckl384	0.0	0.0
Rckl385	0.0	0.0
Rckl386	0.0	0.0
Rckl387	0.0	0.0
Rckl388	0.0	0.0
Rckl389	0.0	3.893897519118083e-12
Rckl390	0.0	0.0
Rckl391	0.0	0.0
Rckl392	277.0586	141.78258029886345
Rckl393	0.0006	5.409542181926357e-05
Rckl394	0.0006	5.4095421819263e-05
Rckl395	0.0	4.025457990539231e-05
Rckl396	0.0	4.0254579905392584e-05
Rckl397	0.0	4.025457990539231e-05
Rckl398	0.0006	5.409542181926419e-05
Rckl399	0.0003	5.409542178412477e-05
Rckl400	0.0	0.0
Rckl401	0.0	0.0
Rckl402	0.0	1.0870895192904174e-20
Rckl403	3.3183	3.287374856017728
Rckl404	3.3183	3.287374856017724
Rckl405	3.3183	3.2873748560177076
Rckl406	3.3183	3.287374856017726
Rckl407	33.5381	32.468662983904444
Rckl408	33.5381	32.46866298390444
Rckl409	33.5381	32.46866298390442
Rckl410	0.01	0.011692294930031676
Rckl411	0.01	0.011692294930034326
Rckl412	0.01	0.011692294930034817
Rckl413	0.0	1.2209581336308962e-05
Rckl414	0.01	0.01169207514587178
Rckl415	0.0	0.0
Rckl416	0.0	0.0
Rckl417	0.0	0.0
Rckl418	0.0	8.170855905811977e-15
Rckl419	0.0	0.0
Rckl420	0.0	0.0
Rckl421	0.0	0.0
Rckl422	0.0	1.7432967787492146e-15
Rckl423	-0.0	7.081956294911329e-15
Rckl424	-0.0	8.399583109935998e-15
Rckl425	-0.0422	0.04269856384326115
Rckl426	0.0422	0.042698563843261185
Rckl427	0.0422	0.04269856384326117
Rckl428	0.0422	0.04269856384326107
Rckl429	0.0422	0.04269856384326118
Rckl430	0.0422	0.04269856384326114
Rckl431	0.0422	0.042698563843261185
Rckl432	0.0422	0.042698563843261185
Rckl433	0.0422	0.04269856384326118
Rckl434	0.0422	0.04269856384326396
Rckl435	0.027	0.009818052427215226
Rckl436	0.027	0.009818052427215217
Rckl437	0.027	0.009818052427215233
Rckl438	0.027	0.009818052427190992
Rckl439	0.027	0.009818052427199133
Rckl440	0.027	0.009818052427199133
Rckl441	0.027	0.009818052427199138
Rckl442	0.0044	0.004447564092265005
Rckl443	0.0081	0.005624158477579546
Rckl444	0.0081	0.005624158477579489
Rckl445	0.0081	0.0056241584775794905
Rckl446	347.9037	240.5405642786833
Rckl447	-347.8956	240.54099703231307
Rckl448	-347.8956	240.54099703233052
Rckl449	0.0189	0.009484366826431575
Rckl450	0.0071	0.006165600646931137
Rckl451	0.0059	0.004386985175007459
Rckl452	0.0071	0.006165600646931136
Rckl453	0.0059	0.00637697567711821
Rckl454	0.0059	0.004386985175017013
Rckl455	0.0037	0.0033826012310133264
Rckl456	0.0059	0.006376975677152372
Rckl457	2.4527	2.4898908238362303
Rckl458	2.4527	2.4898908238362294
Rckl459	5.805	6.211696012303191
Rckl460	0.0006	8.150935970514738e-05
Rckl461	808.5565	83.1013561609343
Rckl462	0.0	0.0
Rckl463	0.0	0.0
Rckl464	0.0002	0.00012534338709590775
Rckl465	0.0	5.536502367192298e-14
Rckl466	0.0	0.0
Rckl467	0.0134	0.010072795721786305
Rckl468	6.8654	4.847187215507969
Rckl469	6.8654	4.847187215508023
Rckl470	0.0	0.0
Rckl471	0.0	0.0
Rckl472	0.0	0.0
Rckl473	0.0	0.0
Rckl474	0.0	0.0
Rckl475	0.0	0.0
Rckl476	0.0	0.0
Rckl477	0.0	0.0
Rckl478	0.0	0.0
Rckl479	0.0	0.0
Rckl480	0.0	0.0
Rckl481	-745.6735	67.21276800636956
Rckl482	0.0003	7.399185570768413e-17
Rckl483	0.0	0.0
Rckl484	0.0003	7.503130878042673e-17
Rckl485	0.0003	7.404381245303303e-17
Rckl486	0.0003	7.399185570768413e-17
Rckl487	0.0003	7.399185570768413e-17
Rckl488	0.0003	7.398354197637496e-17
Rckl489	0.0003	7.218066773450777e-17
Rckl490	0.0003	7.218066773450777e-17
Rckl491	0.0003	7.218066773450777e-17
Rckl492	0.0003	7.218066773450777e-17
Rckl493	0.0003	7.219313318878093e-17
Rckl494	-0.0	2.2420083289733475e-21
Rckl495	0.0003	7.216989386333608e-17
Rckl496	0.0	0.0
Rckl497	0.0039	1.5856374817603527e-15
Rckl498	0.0	1.663749576121354e-18
Rckl499	0.0001	4.470969517374078e-18
Rckl500	0.0	1.6611197141432481e-18
Rckl501	0.0	1.1333182987604793e-18
Rckl502	0.0	1.6158139078618204e-21
Rckl503	0.0	1.9754880128717422e-21
Rckl504	0.0	5.6965679942831165e-21
Rckl505	0.0	5.16770235080576e-21
Rckl506	0.0	0.0
Rckl507	-0.0	6.460076685645e-14
Rckl508	-0.0	6.460076753475046e-14
Rckl509	0.0	0.0
Rckl510	0.0	0.0
Rckl511	0.0	0.0
Rckl512	0.0	0.0
Rckl513	0.0	0.0
Rckl514	0.0	0.0
Rckl515	0.0082	0.0051349156868376366
Rckl516	0.0082	0.005134915686837643
Rckl517	0.0082	0.005134915686838113
Rckl518	0.0082	0.005134915686843454
Rckl519	0.0164	0.010269831373686264
Rckl520	0.0164	0.01026983137368631
Rckl521	0.0082	0.005134915686843208
Rckl522	0.0065	0.00454653641649143
Rckl523	0.002	0.0019394809047886142
Rckl524	0.0	0.0
Rckl525	0.0	0.0
Rckl526	6.4123	4.931671074242794
Rckl527	16.3774	15.01875417541203
Rckl528	-0.8683	6.962439444659654
Rckl529	5.5439	5.502471142176347
Rckl530	1.8892	1.966622150272376
Rckl531	3.5943	3.114592637999887
Rckl532	1.8892	1.966622150272392
Rckl533	3.5943	3.1145926379998876
Rckl534	14.0581	13.077248153708776
Rckl535	6.4123	4.931671074242793
Rckl536	0.0	0.0
Rckl537	0.0216	0.011770211171376
Rckl538	0.0216	0.011770211171376017
Rckl539	1.8789	1.967570106724549
Rckl540	5.462	3.5280689301297508
Rckl541	4.523	4.705088034594189
Rckl542	0.0337	0.011946161737755211
Rckl543	0.0337	0.011946161737763594
Rckl544	0.0	5.234240571087895e-13
Rckl545	0.0	8.981901573589904e-15
Rckl546	0.0	5.248756628089999e-13
Rckl547	0.0	3.111522180518546e-11
Rckl548	0.0	3.114301342431143e-11
Rckl549	0.0221	0.021605357214885747
Rckl550	0.0204	0.012177743329251828
Rckl551	0.0204	0.012177743329252873
Rckl552	0.0	0.0
Rckl553	0.0337	0.011946161737733088
Rckl554	0.0	5.298131853416931e-13
Rckl555	0.0	3.129872277383016e-11
Rckl556	0.0	0.0
Rckl557	0.0	0.0
Rckl558	0.0	1.447606748925509e-13
Rckl559	0.0095	0.004613094242039123
Rckl560	0.0095	0.004613094242039134
Rckl561	0.0095	0.004613094242039189
Rckl562	0.0095	0.00461309424203913
Rckl563	0.0095	0.0046130942420391265
Rckl564	0.0095	0.0046130942420391655
Rckl565	-0.0	3.630246238678986e-08
Rckl566	0.0095	0.0046131071768896826
Rckl567	-0.0	3.6302462386451574e-08
Rckl568	0.0095	0.004613094242039175
Rckl569	0.0042	0.0032587073233087947
Rckl570	0.0054	0.003824438358973457
Rckl571	0.0	0.0
Rckl572	0.0007	0.00017683652400905412
Rckl573	9.5258	9.394666062301043
Rckl574	261.8558	159.7641193972038
Rckl575	9.8523	9.853969037800056
Rckl576	0.0001	1.3288002126584158e-14
Rckl577	9.8523	9.853969037800052
Rckl578	262.1655	159.7976360620981
Rckl579	0.3098	0.2239339545126307
Rckl580	-0.833	0.2337875011894139
Rckl581	0.0	0.0
Rckl582	9.9288	9.38557166338579
Rckl583	0.0	0.0
Rckl584	0.0	0.0
Rckl585	0.0	0.0
Rckl586	0.0	0.0
Rckl587	0.0	0.0
Rckl588	0.0	0.0
Rckl589	0.0	0.0
Rckl590	0.0	3.056175531208312e-15
Rckl591	0.0	3.1124255484034414e-15
Rckl592	0.0	0.0
Rckl593	0.0	3.1124255484034414e-15
Rckl594	0.0	3.1124255484034414e-15
Rckl595	0.0	3.1124255484034445e-15
Rckl596	0.0	3.1124255484034414e-15
Rckl597	0.0	3.1124255484034414e-15
Rckl598	0.0	3.1124255484034445e-15
Rckl599	0.0	3.1124255484034445e-15
Rckl600	0.0	3.1124255484034445e-15
Rckl601	0.0	3.1124255484034445e-15
Rckl602	0.0	3.1124255484034414e-15
Rckl603	0.0	3.1124255484034406e-15
Rckl604	0.0	3.1124255484034445e-15
Rckl605	0.0	4.135336020521079e-15
Rckl606	-0.0	3.1124255484034437e-15
Rckl607	-0.0	3.1124255484034445e-15
Rckl608	-0.0	3.1124255484034504e-15
Rckl609	0.0	0.0
Rckl610	0.0	0.0
Rckl611	0.0	0.0
Rckl612	0.0	0.0
Rckl613	0.0	0.0
Rckl614	0.0	0.0
Rckl615	0.0	1.5562127555218632e-15
Rckl616	0.0	3.1124253769378258e-15
Rckl617	0.0	3.112425376937828e-15
Rckl618	0.0	0.0
Rckl619	0.0	0.0
Rckl620	0.0	0.0
Rckl621	0.0	0.0
Rckl622	0.0	3.112425179415293e-15
Rckl623	0.0	3.1124251524659063e-15
Rckl624	0.0	3.1124251794152916e-15
Rckl625	0.0	3.112425179415292e-15
Rckl626	0.0	0.0
Rckl627	0.0	3.1124253110400354e-15
Rckl628	0.0	3.1124254689187364e-15
Rckl629	0.0	0.0
Rckl630	0.0	0.0
Rckl631	0.0	0.0
Rckl632	0.0	0.0
Rckl633	0.0	0.0
Rckl634	0.0099	0.006643444724852877
Rckl635	0.0117	0.00960648097853936
Rckl636	0.0	1.5562125884372035e-15
Rckl637	0.0	0.0
Rckl638	0.0	0.0
Rckl639	5.3523	5.99655367260723
Rckl640	3.8927	4.149439012301333
Rckl641	0.0	0.0
Rckl642	-0.0	2.456484996211228e-15
Rckl643	-0.0	2.1998243983304117e-15
Rckl644	-0.0	3.5353555789777017e-15
Rckl645	-0.0	3.5347210733618875e-15
Rckl646	-0.0	2.2578586532441532e-15
Rckl647	-0.0	2.9141738883637343e-15
Rckl648	0.0	0.0
Rckl649	-0.0	2.8181228801890567e-21
Rckl650	0.0	0.0
Rckl651	0.0	0.0
Rckl652	0.0	0.0
Rckl653	0.0	0.0
Rckl654	-0.0	2.556439797693274e-21
Rckl655	0.0	2.5065435969430513e-21
Rckl656	0.0	0.0
Rckl657	0.0	0.0
Rckl658	0.0	0.0
Rckl659	0.0	0.0
Rckl660	0.0369	0.04375503229514525
Rckl661	0.0027	0.002563094608450902
Rckl662	0.0844	0.08086563489666458
Rckl663	0.0107	0.010252378433793858
Rckl664	0.0	0.0
Rckl665	0.0	0.0
Rckl666	0.0003	0.0002563094608448542
Rckl667	0.0016	0.0015378567650692991
Rckl668	0.0	0.0
Rckl669	0.0003	0.0002563094608448634
Rckl670	0.0005	0.000512618921689776
Rckl671	0.0	0.0
Rckl672	0.0004	0.0003844641912672576
Rckl673	0.0086	0.008201902747036817
Rckl674	0.0013	0.001281547304224454
Rckl675	0.0004	0.0003844641912673398
Rckl676	0.0	0.0
Rckl677	0.0	0.0
Rckl678	0.0	0.0
Rckl679	0.0	0.0
Rckl680	11.7432	10.923355353918684
Rckl681	9.9524	9.76437858299232
Rckl682	0.0	0.0
Rckl683	0.0	0.0
Rckl684	0.0	0.0
Rckl685	0.0	0.0
Rckl686	0.0	0.0
Rckl687	0.0	0.0
Rckl688	0.0	0.0
Rckl689	0.0	0.0
Rckl690	0.0	0.0
Rckl691	0.0	0.0
Rckl692	0.0	0.0
Rckl693	0.0	0.0
Rckl694	0.0	0.0
Rckl695	0.0	0.0
Rckl696	0.0	0.0
Rckl697	0.0	0.0
Rckl698	0.0	0.0
Rckl699	0.0	0.0
Rckl700	0.0	0.0
Rckl701	0.0	0.0
Rckl702	29.7536	21.825239363587162
Rckl703	-4.6945	5.687456855400613
Rckl704	0.0001	6.407736521122747e-05
Rckl705	0.0001	6.407736521122718e-05
Rckl706	0.0984	0.05342755160095731
Rckl707	0.0973	0.053419459480463116
Rckl708	0.0973	0.053419459480463116
Rckl709	0.0	1.0895000173446533e-05
Rckl710	0.0973	0.05342133109369477
Rckl711	0.0	9.445836751302584e-21
Rckl712	0.0983	0.05342945882344297
Rckl713	0.0	3.1499530236334804e-05
Rckl714	0.0011	0.0007604415879225845
Rckl715	0.0011	0.0007604415879225844
Rckl716	0.0868	0.07525071199374851
Rckl717	0.0	5.31320090049288e-20
Rckl718	0.0	8.650305564697765e-20
Rckl719	0.0	3.3851741115145784e-20
Rckl720	0.0	0.0
Rckl721	0.0011	0.0007604415879225851
Rckl722	-0.0	1.3022080062259092e-15
Rckl723	-0.0	6.678270086501785e-21
Rckl724	0.0	0.0
Rckl726	-208.7125	46.280603620472604
Rckl727	0.0	0.0
Rckl728	0.0	0.0
Rckl729	0.0	0.0
Rckl730	0.0	0.0
Rckl731	-0.0	2.6161311419319492e-11
Rckl732	0.0	4.5061272027097213e-13
Rckl733	0.0	0.0
Rckl734	0.0	0.0
Rckl735	0.0	0.0
Rckl736	0.0	0.0
Rckl737	0.0	0.0
Rckl738	0.0	0.0
Rckl739	0.0	0.0
Rckl740	0.0	0.0
Rckl741	0.0	0.0
Rckl742	0.0	0.0
Rckl743	0.0	0.0
Rckl744	0.0	0.0
Rckl745	0.0	0.0
Rckl746	0.1053	0.07604415879225776
Rckl747	10.7622	8.9728512899441
Rckl748	8.5666	10.580123452625745
Rckl749	6.6979	6.093376448811531
Rckl750	6.4024	5.839698889145871
Rckl751	5.7962	4.995344239161454
Rckl752	7.7738	6.966969490354781
Rckl753	0.0003	0.00017683652387510092
Rckl754	0.0	0.0
Rckl755	0.0	0.0
Rckl756	0.0	0.0
Rckl757	0.0	0.0
Rckl758	59.4696	10.661561590237943
Rckl759	0.0	1.5925846480061212e-13
Rckl760	0.0	0.0
Rckl761	0.0	0.0
Rckl762	0.0061	0.00505182583280855
Rckl763	-0.0	1.4411887287091773e-13
Rckl770	2.4527	2.489890823836231
Rckl771	-0.0112	0.008784411709116886
Rckl772	-0.0104	0.008786590146851514
Rckl774	9.1135	9.084539735237641
Rckl775	0.0	0.0
Rckl777	0.0	0.0
Rckl778	0.0	0.0
Rckl779	0.0	0.0
Rckl780	0.0	0.0
Rckl781	0.0	0.0
Rckl783	-0.0	3.2038682605143905e-05
Rckl784	0.0	0.0
Rckl785	9.1135	9.084539735237644
Rckl786	0.0002	2.010102173314585e-17
Rckl788	0.0	0.0
Rckl791	0.0	0.0
Rckl792	0.0	0.0
Rckl793	-0.0129	0.012264468336718706
Rckl794	0.534	0.4549712442665064
Rckl795	745.6769	67.21276800637527
Rckl796	0.0001	5.409542178412948e-05
Rckl797	-818.971	49.78300812972198
Rckl798	0.0	0.0
Rckl799	371.7252	133.6742728691203
Rckl800	280.3472	133.75587999543598
Rckl801	-0.0612	0.14972149065798954
Rckl802	17.6953	16.339166232853973
Rckl803	2.051	1.9083668516202572
Rckl804	-3.3181	3.287374856017723
Rckl805	26.5435	16.94702356738619
Rckl806	25.6119	17.219238068135855
Rckl807	24.3157	21.422527813506598
Rckl808	28.6192	17.5353455407107
Rckl809	25.5111	17.54298348605922
Rckl810	20.1327	16.626362937428468
Rckl811	18.8998	15.966588812446833
Rckl812	15.7528	14.559523683107283
Rckl813	-0.0095	0.011692294930033362
Rckl814	22.6404	16.999662027478767
Rckl815	-0.2135	0.21066172267739258
Rckl816	-0.0128	0.008520467106416137
Rckl817	-0.0049	0.004386985174997875
Rckl818	-0.008	0.005624158477587353
Rckl819	0.0	3.112426682416193e-15
Rckl820	0.0045	0.0041337713806994
Rckl821	0.002	0.001939480904806954
Rckl822	0.0	0.0
Rckl823	0.0	0.0
Rckl824	10.3294	10.126100905262376
Rckl825	-0.0186	0.016322287959749587
Rckl826	0.0061	0.004970314016174983
Rckl827	0.0	0.0
Rckl828	0.0057	0.00508259612396189
Rckl829	0.0062	0.0051566865022185104
Rckl830	-0.0104	0.009661269041922316
Rckl831	0.0173	0.015893496950134894
Rckl832	-0.0095	0.008364970312375318
Rckl833	0.0141	0.02778913697229909
Rckl834	0.0	0.0
Rckl835	-972.8398	14.788829163296423
Rckl836	0.0212	0.015755850054278986
Rckl837	116.3507	28.968106982111888
Rckl838	0.0187	0.010195452869924881
Rckl839	-0.0197	0.018633161917541437
Rckl840	0.0095	0.004613094242037982
Rckl841	0.0	0.0
Rckl842	-0.0	1.1026889876567699e-13
Rckl843	0.0	8.11444259143371e-18
Rckl844	-0.0152	0.014592143471458374
Rckl845	0.0	0.0
Rckl846	-59.4062	10.723573372513478
Rckl847	-0.0149	0.014310406019575807
Rckl848	0.026	0.02867219156216899
Rckl849	-353.3477	72.43007917588798
Rckl850	0.0	0.0
Rckl851	0.0	0.0
Rckl852	-0.0204	0.017019769986532242
Rckl853	266.6083	129.83311333602185
Rckl854	25.073	21.375394049465566
Rckl855	0.0	0.0
Rckl856	0.0	0.0
Rckl857	0.0072	0.003943200428455109
Rckl858	0.0	0.0
Rckl859	-0.0153	0.016525814112645407
Rckl860	-0.0292	0.02553776157783224
Rckl861	-287.2183	131.37924201316912
Rckl862	0.008	0.006620770832655715
Rckl863	-30.2198	32.254260370832014
Rckl864	0.0052	0.020650584105997953
Rckl865	0.0	0.0
Rckl866	10.3294	10.126100905262376
Rckl867	-38.9687	26.196980395932375
Rckl868	-0.0147	0.013356535998205042
HEOLt	0.0	0.0
Rckl869	-0.0165	0.014634797478863835
Rckl870	0.0	0.0
Rckl871	-0.0017	0.0037527003096209798
Rckl872	-0.0042	0.003258707323308794
Rckl873	-0.0337	0.011946161737878684
Rckl874	-0.0053	0.0038244383589425114
Rckl875	0.0	0.0
Rckl876	0.0	0.0
Biomass_ck	0.0028	2.0318154075373248e-16
RlacTrans	-353.3319	72.42933127531093
RMN_c0	0.0	0.0
RNA	0.0001	3.418630806530594e-17
RPE	-0.6177	0.22042940558894264
RPI	-0.6013	0.22097505994564945
rxn00001_c0	25.1403	15.466689727453478
rxn00002_c0	0.0	0.0
rxn00003_c0	0.0418	0.02548719155896718
rxn00010_c0	0.0519	0.05431842280598135
rxn00011_c0	0.0138	0.009397090777178976
rxn00029_c0	0.0	0.0
rxn00048_c0	0.004	0.005564107723594025
rxn00060_c0	0.0	0.0
ATPM_auto	0.7392	5.705848619179347e-14
rxn00065_c0	0.0	0.0
rxn00074_c0	0.0	0.0
rxn00077_c0	322.1744	221.9995379560559
rxn00085_c0	-12.1996	15.104406529967976
rxn00097_c0	17.2879	7.838193320097914
rxn00100_c0	0.0	2.5416807380839364e-13
rxn00102_c0	-21.91	13.799103956314505
rxn00103_c0	-12.7225	9.745131229800885
rxn00114_c0	35.1678	33.34334319689349
rxn00117_c0	0.4783	0.2190584508275556
rxn00119_c0	0.4776	0.21905845009346714
rxn00122_c0	0.0	4.631023538846593e-20
rxn00125_c0	0.0	0.0
rxn00126_c0	0.0002	6.3081758971073644e-15
rxn00127_c0	0.0	0.0
rxn00137_c0	0.0	0.0
rxn00138_c0	0.0	2.4518520677169986e-07
rxn00139_c0	0.0001	4.203648566582644e-05
rxn00141_c0	0.0002	6.337996122772906e-15
rxn00143_c0	0.0	0.0
rxn00146_c0	0.0	0.0
rxn00148_c0	20.6336	17.24463080553037
rxn00151_c0	7.0887	6.441111915224859
rxn00157_c0	15.4689	17.375952246813625
rxn00159_c0	12.7479	10.390464643257351
rxn00161_c0	776.6971	61.2767274448228
rxn00165_c0	0.0631	0.07018763311019902
rxn00171_c0	-403.9983	49.68751254243254
rxn00173_c0	168.3985	59.64367210293144
rxn00178_c0	0.0	0.0
rxn00179_c0	3.915	3.9501079316974583
rxn00183_c0	11.321	6.32786576250483
rxn00184_c0	66.5938	79.82540859691561
rxn00187_c0	11.9294	9.207048878192031
rxn00190_c0	0.0	2.451856328434458e-07
rxn00192_c0	5.4898	5.167254469531878
rxn00193_c0	0.0	0.0
rxn00195_c0	644.9216	12.885030021218192
rxn00202_c0	0.0	0.0
rxn00213_c0	0.0005	4.631516253275157e-15
rxn00214_c0	0.0003	2.440598035369193e-17
rxn00223_c0	0.0	0.0
rxn00224_c0	0.0	0.0
rxn00225_c0	168.3985	59.64367210294219
rxn00234_c0	-644.9216	12.885030021218299
rxn00237_c0	-9.5809	13.892257112104033
rxn00239_c0	0.4517	0.22974915730468481
rxn00245_c0	0.0	0.0
rxn00247_c0	22.0342	20.773042235016682
rxn00248_c0	-773.8118	63.088824141047795
rxn00250_c0	11.8325	11.130686185630305
rxn00256_c0	-14.5241	11.020659596185137
rxn00260_c0	787.8487	54.53132246107962
rxn00265_c0	10.6889	10.294042089966217
rxn00272_c0	-0.1038	0.10863684561174378
rxn00279_c0	12.6771	13.038423030572927
rxn00283_c0	745.6923	67.21241831078784
rxn00288_c0	356.552	72.73521615127497
rxn00289_c0	0.0	0.0
rxn00292_c0	0.0	0.0
rxn00293_c0	0.0004	4.978480125763959e-17
rxn00295_c0	0.0	0.0
rxn00297_c0	0.0	0.0
rxn00299_c0	0.0	3.497723837348538e-07
rxn00300_c0	0.004	0.005564107723594007
rxn00302_c0	0.0	3.497723540627731e-07
rxn00303_c0	0.0	0.0
rxn00313_c0	0.0092	0.00837008458558272
rxn00322_c0	0.0	0.0
rxn00328_c0	0.0	0.0
rxn00337_c0	0.6693	0.40181970121201
rxn00347_c0	13.2479	11.562393968946303
rxn00350_c0	0.0	0.0
rxn00358_c0	0.0	0.0
rxn00364_c0	0.0015	9.025327830107755e-09
rxn00365_c0	-0.0	1.0302829566738838e-08
rxn00368_c0	-0.0	6.105863889466204e-09
rxn00369_c0	0.0	0.0
rxn00375_c0	0.0	0.0
rxn00378_c0	0.0	0.0
rxn00392_c0	0.0	4.648149914619401e-20
rxn00394_c0	2.4904	2.489977519271781
rxn00395_c0	33.4046	33.004207630793886
rxn00405_c0	0.0	0.0
rxn00409_c0	0.0015	9.025330111060747e-09
rxn00410_c0	0.0001	4.554617380063504e-05
rxn00412_c0	0.0001	4.554617381753945e-05
rxn00414_c0	4.1629	4.518859915016967
rxn00416_c0	2.064	1.9083706927298612
rxn00420_c0	0.0	0.0
rxn00422_c0	0.0	0.0
rxn00423_c0	0.1332	0.07204967486051851
rxn00438_c0	0.0	1.0312718362941257e-19
rxn00440_c0	0.0	0.0
rxn00459_c0	12.1522	34.42772286142333
rxn00461_c0	0.0002	2.2677969923683998e-17
rxn00467_c0	7.4168	5.165349672775972
rxn00469_c0	5.4898	5.16725446953188
rxn00470_c0	0.0	0.0
rxn00474_c0	0.0057	0.004741919620715424
rxn00493_c0	-0.007	0.00621623830623659
rxn00499_c0	-0.0175	0.017801187763049713
rxn00505_c0	3.8353	4.067046371658541
rxn00506_c0	0.0	0.0
rxn00527_c0	-0.0058	0.005033760852115032
rxn00541_c0	0.8066	0.3172405789371615
rxn00543_c0	116.3707	28.967378603667758
rxn00545_c0	16.1985	13.784388676217423
rxn00549_c0	8.5004	11.98141284661513
rxn00555_c0	-287.2178	131.37924201316844
rxn00558_c0	-137.3434	353.0660522817949
rxn00559_c0	-0.0085	0.008844814334010609
rxn00566_c0	0.0673	0.05942669203713063
rxn00568_c0	0.0	1.7835010647849038e-14
rxn00569_c0	0.0	0.0
rxn00611_c0	10.6676	9.59606942132755
rxn00612_c0	-10.6691	9.596069421327561
rxn00621_c0	0.0	0.0
rxn00623_c0	1.8003	1.6130257603388212
rxn00640_c0	-6.4773	13.854224994852997
rxn00641_c0	6.4773	13.854224994852997
rxn00649_c0	0.1332	0.0720496748603789
rxn00650_c0	0.0	0.0
rxn00654_c0	0.0	2.513818232803347e-13
rxn00670_c0	0.0	0.0
rxn00676_c0	0.0	0.0
rxn00686_c0	-0.0001	2.9664122781094747e-13
rxn00689_c0	0.0	0.0
rxn00690_c0	0.1709	0.13946930376131064
rxn00692_c0	0.0145	0.19519690695670303
rxn00693_c0	0.0113	0.011156723011223633
rxn00704_c0	-0.0005	4.631516253275157e-15
rxn00707_c0	0.0	1.4625459221915407e-08
rxn00709_c0	0.1592	0.12390459098904413
rxn00710_c0	0.0251	0.01606227613208637
rxn00711_c0	0.1214	0.11682813596097404
rxn00713_c0	0.1717	0.16227806593274846
rxn00714_c0	0.0	0.0
rxn00715_c0	-0.0	1.4625465099311385e-08
rxn00717_c0	0.0	0.0
rxn00720_c0	-0.0	2.458379884655049e-13
rxn00726_c0	0.005	0.004731067275365514
rxn00727_c0	0.005	0.0037729397787831793
rxn00737_c0	0.0064	0.005391941945321097
rxn00742_c0	0.0074	0.007284740760399752
rxn00747_c0	-16.6882	18.614948445897816
rxn00748_c0	3.2272	3.4118956328597765
rxn00762_c0	0.0	0.0
rxn00763_c0	-25.0888	21.37844290465841
rxn00770_c0	0.648	0.24563104915862266
rxn00775_c0	0.0	0.0
rxn00776_c0	0.0	0.0
rxn00777_c0	-0.651	0.19543929633216847
rxn00778_c0	-0.3307	0.20349063653356905
rxn00779_c0	0.0	0.0
rxn00779_mod_c0	0.0	0.0
rxn00781_c0	12.1003	34.42467283608312
rxn00784_c0	0.9245	0.293401150502397
rxn00785_c0	0.3504	0.09809926572218063
rxn00786_c0	-17.3964	23.355637681883152
rxn00789_c0	0.0395	0.04131050698936869
rxn00790_c0	0.0218	0.014994354353051449
rxn00791_c0	0.0099	0.005547088111496162
rxn00799_c0	-15.643	11.963026842781396
rxn00800_c0	0.0398	0.04131225444332369
rxn00802_c0	2.3658	3.4100182660165492
rxn00806_c0	-0.0108	0.012498840025750463
rxn00827_c0	0.0	0.0
rxn00832_c0	-0.0614	0.04221231881320159
rxn00834_c0	0.1566	0.12634572354319287
rxn00836_c0	0.135	0.12354580599459064
rxn00838_c0	0.0398	0.04131225444332482
rxn00851_c0	0.0	0.0
rxn00863_c0	0.0395	0.04131050698934399
rxn00867_c0	0.0732	0.05628893809673252
rxn00868_c0	0.0	0.0
rxn00874_c0	0.0	0.0
rxn00879_c0	0.0	0.0
rxn00898_c0	0.0274	0.023003607114466387
rxn00902_c0	0.0108	0.012498840025750461
rxn00903_c0	-732.8319	67.41967513845151
rxn00904_c0	732.8153	67.4176542297968
rxn00907_c0	-0.0365	0.14282231132675535
rxn00910_c0	0.1364	0.1346513334541238
rxn00912_c0	0.0	2.5293192852415263e-13
rxn00915_c0	0.1773	0.13901365381341652
rxn00917_c0	0.2744	0.16071997159391968
rxn00926_c0	0.0	1.9338746067869207e-05
rxn00929_c0	12.466	12.192591797949964
rxn00931_c0	-12.4764	12.191818526805237
rxn00938_c0	0.0	0.0
rxn00947_c0	0.0	0.0
rxn00952_c0	0.0185	0.013118614801617114
rxn00953_c0	0.0074	0.007284740760399754
rxn00966_c0	0.0	0.0
rxn00973_c0	0.0	0.0
rxn00974_c0	3.8353	4.067046371658539
rxn00980_c0	0.0	0.0
rxn00985_c0	0.0	0.0
rxn00988_c0	0.0	0.0
rxn01000_c0	0.007	0.006216238306237745
rxn01018_c0	0.0251	0.016062276132087185
rxn01019_c0	-31.0301	32.727119104318795
rxn01021_c0	0.0	0.0
rxn01025_c0	0.0	0.0
rxn01028_c0	0.0	0.0
rxn01029_c0	0.0	0.0
rxn01044_c0	-0.0093	0.008571386579602736
rxn01068_c0	0.0	0.0
rxn01069_c0	0.6414	0.4002032498842148
rxn01100_c0	12.1003	34.42467283608195
rxn01101_c0	0.0	0.0
rxn01102_c0	0.0519	0.05431842280589474
rxn01106_c0	-12.1522	34.427722861423455
rxn01114_c0	0.0	0.0
rxn01115_c0	0.0	0.0
rxn01116_c0	-0.6589	0.19474001111479783
rxn01127_c0	0.0	0.0
rxn01137_c0	0.0	2.8902378699862226e-05
rxn01138_c0	0.0001	2.890237870325247e-05
rxn01171_c0	0.0	0.0
rxn01199_c0	-0.0093	0.008571386579602736
rxn01200_c0	0.3277	0.09693199950020355
rxn01201_c0	0.0	0.0
rxn01204_c0	0.0	0.0
rxn01207_c0	0.0	0.0
rxn01208_c0	0.0108	0.012498840025750463
rxn01210_c0	0.0	0.0
rxn01211_c0	-0.0877	0.1389926186038814
rxn01213_c0	-0.0	6.421139901916616e-15
rxn01217_c0	0.0	0.0
rxn01219_c0	0.0	0.0
rxn01225_c0	0.2703	0.1607056814205553
rxn01241_c0	0.0	0.0
rxn01255_c0	0.0227	0.009949288526094363
rxn01256_c0	0.0128	0.007735855981399379
rxn01257_c0	0.0	2.9093042045795585e-13
rxn01258_c0	-0.0	6.4211382290362174e-15
rxn01265_c0	0.0	0.0
rxn01268_c0	0.0058	0.005033760852142176
rxn01269_c0	0.0	0.0
rxn01270_c0	0.0	0.0
rxn01275_c0	0.0	0.0
rxn01280_c0	11.8505	12.6225046650234
rxn01281_c0	-11.9024	12.625351066704829
rxn01291_c0	0.0	0.0
rxn01292_c0	-0.0098	0.009104790217439863
rxn01297_c0	-0.1524	0.1263473148316152
rxn01300_c0	0.6414	0.4002032498840303
rxn01301_c0	10.7797	10.577073203997315
rxn01302_c0	-11.4395	10.662142148185385
rxn01303_c0	0.0185	0.013118614801610185
rxn01304_c0	0.0	0.0
rxn01316_c0	0.0	0.0
rxn01329_c0	0.0	0.0
rxn01331_c0	0.0	0.0
rxn01332_c0	0.0227	0.009949288526094356
rxn01333_c0	-12.5521	10.586913124401608
rxn01334_c0	12.2245	10.58980470347947
rxn01343_c0	12.2245	10.589804703479446
rxn01352_c0	0.4475	0.22996932524994404
rxn01358_c0	0.0	2.8902378700203912e-05
rxn01362_c0	0.0251	0.016062276132085156
rxn01366_c0	-0.3309	0.20349063653367955
rxn01368_c0	0.0	1.3536173826666007e-20
rxn01388_c0	-3.8353	4.0670463716585425
rxn01390_c0	0.0	0.0
rxn01406_c0	0.0	0.0
rxn01434	2.3658	3.4100182660165506
rxn01446_c0	0.4475	0.22996932524990035
rxn01452_c0	0.0	0.0
rxn01454_c0	0.0	0.0
rxn01465_c0	-0.0251	0.01606227613214379
rxn01466_c0	-0.0	6.421139901916616e-15
rxn01485_c0	-0.0004	4.8301389588092716e-17
rxn01486_c0	-0.0	6.421139901916616e-15
rxn01492_c0	-25.0944	21.37770506815821
rxn01509_c0	0.0	0.0
rxn01512_c0	-322.1744	221.99953795604543
rxn01513_c0	0.0001	7.016335644457273e-15
rxn01519_c0	0.477	0.21905845009342131
rxn01520_c0	0.0001	8.286872922062762e-15
rxn01521_c0	0.4769	0.21905845009346211
rxn01522_c0	0.0	0.0
rxn01544_c0	0.1179	0.1067630037215064
rxn01548_c0	0.0	0.0
rxn01575_c0	-0.0138	0.009397090777178863
rxn01602_c0	0.0	0.0
rxn01603_c0	0.0	2.90930425483537e-13
rxn01621_c0	0.0	0.0
rxn01626_c0	0.0	2.517547978263035e-13
rxn01629_c0	0.0	0.0
rxn01636_c0	-1.3635	6.507204923667546
rxn01637_c0	-4.1264	4.148942634660758
rxn01639_c0	0.1244	0.07651022133104217
rxn01641_c0	0.0512	0.051884271483137685
rxn01642_c0	0.0732	0.056288938096736275
rxn01643_c0	0.6693	0.40181970121201643
rxn01644_c0	0.0094	0.008370084585582853
rxn01646_c0	0.0	0.0
rxn01647_c0	0.0	0.0
rxn01648_c0	-0.0	1.781063696666624e-25
rxn01649_c0	0.0	0.0
rxn01653_c0	0.0	0.0
rxn01654_c0	0.0512	0.05188427148312028
rxn01664_c0	0.0	0.0
rxn01675_c0	0.0	0.0
rxn01682_c0	0.0057	0.004741919620715428
rxn01739_c0	0.0227	0.009949288526094354
rxn01740_c0	-0.0227	0.009949288526094351
rxn01748_c0	0.0	0.0
rxn01761_c0	0.0	0.0
rxn01763_c0	-0.0098	0.009104790217441393
rxn01790_c0	-0.0	2.528873264390175e-13
rxn01791_c0	0.0	2.5644191175953407e-13
rxn01799_c0	0.4769	0.2190584500934223
rxn01800_c0	0.0	0.0
rxn01858_c0	0.0	8.433029057201278e-06
rxn01859_c0	-0.0	8.433029057201273e-06
rxn01870_c0	25.0888	21.378442904657803
rxn01917_c0	4.1264	4.14894263466076
rxn01964_c0	0.0042	0.003521886465348546
rxn01972_c0	6.0194	6.273462433977282
rxn01974_c0	0.0094	0.00837008458558271
rxn01977_c0	-129.2654	347.86283554138794
rxn01985_c0	0.0	8.433029057201278e-06
rxn01986_c0	0.9245	0.29340115050235477
rxn01989_c0	0.0	0.0
rxn01997_c0	0.0	0.0
rxn02000_c0	0.0	0.0
rxn02003_c0	0.0	0.0
rxn02005_c0	0.0	0.0
rxn02008_c0	0.0	0.0
rxn02011_c0	0.0	0.0
rxn02056_c0	0.0	0.0
rxn02085_c0	-0.0732	0.056288938096735346
rxn02112_c0	-0.0143	0.013464145865766221
rxn02113_c0	0.0143	0.013464145865766459
rxn02155_c0	0.0	1.0546859669960386e-12
rxn02159_c0	0.0395	0.04131050698935479
rxn02160_c0	0.0395	0.041310506989368674
rxn02161_c0	0.0	0.0
rxn02175_c0	0.0	2.5197537741884086e-13
rxn02177_c0	0.0	0.0
rxn02187_c0	0.0274	0.02300360711446638
rxn02190_c0	0.0	0.0
rxn02200_c0	-2.8143	2.5227031632225656
rxn02201_c0	2.8143	2.5227031632225905
rxn02212_c0	0.0227	0.00994928852609436
rxn02213_c0	0.0227	0.009949288526094358
rxn02264_c0	0.0	0.0
rxn02269_c0	0.0	0.0
rxn02285_c0	-0.0002	2.3129797412521685e-17
rxn02286_c0	0.0	0.0
rxn02287_c0	0.0	0.0
rxn02288_c0	0.0	0.0
rxn02305_c0	0.0	1.0313212845594266e-19
rxn02312_c0	0.0	0.0
rxn02314_c0	0.0	0.0
rxn02320_c0	-0.0395	0.04131050698936868
rxn02339_c0	0.0	0.0
rxn02341_c0	0.0	2.833425943194675e-13
rxn02373_c0	-3.915	3.950107931697618
rxn02374_c0	0.0104	0.009724239152365748
rxn02380_c0	-129.2654	347.8628355413713
rxn02402_c0	0.0	1.054685967854343e-12
rxn02465_c0	4.1264	4.148942634660758
rxn02473_c0	0.0395	0.04131050698936868
rxn02474_c0	-0.004	0.0055641077235940055
rxn02475_c0	0.004	0.0055641077235940055
rxn02476_c0	0.0227	0.009949288526094354
rxn02483_c0	0.0	0.0
rxn02484_c0	0.0	0.0
rxn02503_c0	2.8143	2.5227031632225905
rxn02504_c0	0.0	2.9093558843623244e-13
rxn02507_c0	0.0099	0.005547088111496163
rxn02508_c0	0.0099	0.0055470881114961625
rxn02527_c0	0.0	0.0
rxn02569_c0	0.0	0.0
rxn02622_c0	644.9216	12.885030021218261
rxn02625_c0	-644.9216	12.885030021218206
rxn02666_c0	0.0	0.0
rxn02680_c0	0.0	0.0
rxn02774_c0	0.0	0.0
rxn02775_c0	0.0	0.0
rxn02789_c0	0.0108	0.012498840025750465
rxn02791_c0	0.0	0.0
rxn02792_c0	0.0	0.0
rxn02804_c0	0.0	0.0
rxn02811_c0	-0.0108	0.012498840025750463
rxn02831_c0	-0.0	6.421138329684424e-15
rxn02832_c0	-0.0	6.421138098862292e-15
rxn02834_c0	0.0395	0.04131050698936869
rxn02835_c0	0.0395	0.04131050698936869
rxn02875_c0	0.0	0.0
rxn02895_c0	0.0218	0.01499435435305145
rxn02897_c0	0.0	0.0
rxn02898_c0	-0.0	6.421139905840671e-15
rxn02916_c0	0.0	0.0
rxn02929_c0	0.0094	0.008370084585582855
rxn02937_c0	0.0218	0.014994354352947076
rxn02938_c0	5.89	5.525655050217573
rxn02988_c0	0.0	1.0546859664278226e-12
rxn03004_c0	0.0218	0.014994354353051416
rxn03012_c0	0.0	0.0
rxn03030_c0	6.0194	6.273462433977281
rxn03062_c0	0.0108	0.012498840025750461
rxn03068_c0	-0.0274	0.023003607114466394
rxn03075_c0	0.0	0.0
rxn03080_c0	0.0079	0.011128215447187891
rxn03084_c0	0.0218	0.014994354353051418
rxn03086_c0	-6.0194	6.273462433977281
rxn03108_c0	0.0	1.0348603796977078e-19
rxn03135_c0	0.0395	0.041310506989368674
rxn03136_c0	0.0218	0.014994354352944378
rxn03137_c0	0.0614	0.042212318813202226
rxn03147_c0	0.0218	0.014994354352933231
rxn03150_c0	0.0	0.0
rxn03164_c0	0.0	0.0
rxn03167_c0	0.0	2.909355835215375e-13
rxn03174_c0	0.0	3.497723540627736e-07
rxn03175_c0	0.0395	0.04131050698936869
rxn03188_c0	0.0	0.0
rxn03194_c0	0.0138	0.00939709077717481
rxn03243_c0	0.0	0.0
rxn03248_c0	0.0	0.0
rxn03393_c0	0.0	0.0
rxn03395_c0	0.0	0.0
rxn03397_c0	0.0	0.0
rxn03408_c0	0.0	0.0
rxn03419_c0	0.0	3.4977235406277335e-07
rxn03421_c0	0.0	3.4977235406277335e-07
rxn03435_c0	-0.0138	0.009397090777178865
rxn03436_c0	0.0138	0.009397090777178865
rxn03437_c0	0.0138	0.009397090777178863
rxn03446_c0	0.0	0.0
rxn03512_c0	0.0	0.0
rxn03514_c0	0.0	0.0
rxn03535_c0	0.0	0.0
rxn03536_c0	0.0	0.0
rxn03537_c0	0.0	0.0
rxn03538_c0	0.0	0.0
rxn03638_c0	0.0004	4.8301389588092716e-17
rxn03841_c0	0.0	2.9093042655645523e-13
rxn03843_c0	0.0	0.0
rxn03852_c0	0.0	0.0
rxn03884_c0	0.0	0.0
rxn03891_c0	-0.0	6.421139901916616e-15
rxn03892_c0	-0.0	6.421139901916616e-15
rxn03893_c0	0.0	0.0
rxn03901_c0	0.0	0.0
rxn03903_c0	0.0	0.0
rxn03904_c0	0.0	0.0
rxn03907_c0	-0.0	5.136908410240021e-14
rxn03908_c0	-0.0	5.136909153608621e-14
rxn03909_c0	0.0	5.136903462681579e-14
rxn03910_c0	-0.0	5.1369093254992e-14
rxn03933_c0	0.0	0.0
rxn03951_c0	0.0	0.0
rxn03958_c0	0.0	5.136908410160564e-14
rxn04045_c0	0.0	0.0
rxn04046_c0	0.0	0.0
rxn04048_c0	0.0	0.0
rxn04052_c0	0.0	0.0
rxn04082_c0	-0.0098	0.009104790217441391
rxn04113_c0	-0.0	3.799107671429026e-14
rxn04132_c0	0.0	0.0
rxn04133_c0	0.0	0.0
rxn04308_c0	0.0	0.0
rxn04385_c0	0.0	0.0
rxn04413_c0	0.0	0.0
rxn04454_c0	0.0	0.0
rxn04456_c0	0.0	0.0
rxn04457_c0	0.0	0.0
rxn04675_c0	-0.0	6.421138229036219e-15
rxn04712_c0	0.0	0.0
rxn04794_c0	0.0	0.0
rxn04937_c0	0.0	0.0
rxn04954_c0	0.0	0.0
rxn04996_c0	-0.0	5.4273016862540626e-15
rxn05029_c0	0.0	0.0
rxn05039_c0	0.004	0.0055641077235940055
rxn05040_c0	0.0079	0.011128215447152793
rxn05064_c0	0.0	0.0
rxn05116_c0	0.0	0.0
rxn05119_c0	0.0	1.0546859686859395e-12
rxn05144_c0	0.0	7.333627978294341e-20
rxn05145_c0	13.3238	15.220566920740753
rxn05150_c0	0.0	2.654650249494057e-19
rxn05160_c0	3.283	3.024985638090116
rxn05162_c0	0.0	0.0
rxn05163_c0	0.0	0.0
rxn05170_c0	0.0	0.0
rxn05171_c0	17.6338	20.428573423204245
rxn05172_c0	0.0	0.0
rxn05174_c0	4.5123	4.432198543415268
rxn05175_c0	0.0	0.0
rxn05183_c0	0.0	0.0
rxn05187_c0	0.0	0.0
rxn05195_c0	0.0	0.0
rxn05197_c0	-0.0247	0.016062276132076996
rxn05198_c0	0.0	0.0
rxn05199_c0	0.0	0.0
rxn05200_c0	0.0	0.0
rxn05201_c0	-0.0175	0.01541843628037969
rxn05202_c0	0.0	0.0
rxn05205_c0	0.0	0.0
rxn05206_c0	-5.7788	5.501420426281093
rxn05207_c0	0.0	0.0
rxn05209_c0	-366.5229	183.6864222231185
rxn05219_c0	10.5803	10.051581286006469
rxn05221_c0	366.5229	183.68642222311843
rxn05223_c0	0.0	0.0
rxn05226_c0	-266.6083	129.83311333602583
rxn05229_c0	5.9118	5.526527922566921
rxn05232_c0	0.0001	1.180789385363093e-17
rxn05234_c0	0.4476	0.22996932524991187
rxn05235_c0	0.0	1.0638111358480951e-18
rxn05236_c0	0.477	0.21905845009342229
rxn05243_c0	-0.0105	0.012498840025750321
rxn05244_c0	-0.0135	0.00939709077717908
rxn05247_c0	0.0	0.0
rxn05248_c0	0.0	0.0
rxn05249_c0	0.0	0.0
rxn05250_c0	0.0	0.0
rxn05251_c0	0.0	0.0
rxn05252_c0	0.0	0.0
rxn05256_c0	2.4404	1.7741390214955324
rxn05287_c0	-0.0	6.421139901916616e-15
rxn05289_c0	3.3651	1.8052310870328907
rxn05291_c0	0.0	0.0
rxn05293_c0	-0.0	5.1369083828131733e-14
rxn05298_c0	0.0	0.0
rxn05303_c0	0.0	0.0
rxn05307_c0	0.1994	0.21275588870806553
rxn05312_c0	-13.3133	15.21943910807793
rxn05316_c0	0.0	0.0
rxn05317_c0	0.0	0.0
rxn05318_c0	0.0	0.0
rxn05319_c0	-833.5896	63.09937945673973
rxn05336_c0	0.0	0.0
rxn05337_c0	0.0	0.0
rxn05338_c0	0.0	0.0
rxn05339_c0	0.0	0.0
rxn05340_c0	0.0	0.0
rxn05341_c0	0.0	0.0
rxn05342_c0	0.0	0.0
rxn05343_c0	0.0	0.0
rxn05344_c0	0.0	0.0
rxn05345_c0	0.0	0.0
rxn05346_c0	0.0	0.0
rxn05347_c0	0.0	2.4160912407706662e-20
rxn05348_c0	0.0	0.0
rxn05349_c0	0.0004	9.479096100361352e-17
rxn05350_c0	0.0	0.0
rxn05358_c0	0.0	0.0
rxn05359_c0	0.0	0.0
rxn05360_c0	0.0	0.0
rxn05361_c0	0.0	0.0
rxn05363_c0	0.0	0.0
rxn05364_c0	0.0	0.0
rxn05365_c0	0.0	0.0
rxn05367_c0	0.0	0.0
rxn05368_c0	0.0	0.0
rxn05369_c0	0.0	0.0
rxn05371_c0	0.0	0.0
rxn05372_c0	0.0	0.0
rxn05373_c0	0.0	0.0
rxn05375_c0	0.0	0.0
rxn05376_c0	0.0	0.0
rxn05377_c0	0.0	0.0
rxn05379_c0	0.0	0.0
rxn05380_c0	0.0	0.0
rxn05381_c0	0.0	0.0
rxn05383_c0	0.0	0.0
rxn05384_c0	0.0	0.0
rxn05385_c0	0.0	0.0
rxn05386_c0	0.0	0.0
rxn05388_c0	0.0	0.0
rxn05389_c0	0.0	0.0
rxn05390_c0	0.0	0.0
rxn05392_c0	0.0	0.0
rxn05393_c0	0.0	0.0
rxn05394_c0	0.0	0.0
rxn05396_c0	0.0	0.0
rxn05397_c0	0.0	0.0
rxn05398_c0	0.0	0.0
rxn05400_c0	0.0	0.0
rxn05401_c0	0.0	0.0
rxn05402_c0	0.0	0.0
rxn05404_c0	0.0	0.0
rxn05405_c0	0.0	0.0
rxn05406_c0	0.0	0.0
rxn05409_c0	0.0	0.0
rxn05410_c0	0.0	0.0
rxn05413_c0	0.0	0.0
rxn05414_c0	0.0	0.0
rxn05417_c0	0.0	0.0
rxn05418_c0	0.0	0.0
rxn05421_c0	0.0	0.0
rxn05422_c0	0.0	0.0
rxn05425_c0	0.0	0.0
rxn05426_c0	0.0	0.0
rxn05429_c0	0.0	0.0
rxn05430_c0	0.0	0.0
rxn05433_c0	0.0	0.0
rxn05434_c0	0.0	0.0
rxn05435_c0	0.0	0.0
rxn05436_c0	0.0	0.0
rxn05437_c0	0.0	0.0
rxn05438_c0	0.0	0.0
rxn05439_c0	0.0	0.0
rxn05440_c0	0.0	0.0
rxn05441_c0	0.0	0.0
rxn05442_c0	0.0	0.0
rxn05443_c0	0.0	0.0
rxn05444_c0	0.0	0.0
rxn05452_c0	0.0	0.0
rxn05454_c0	0.0	0.0
rxn05460_c0	0.0	0.0
rxn05461_c0	0.0	0.0
rxn05465_c0	0.0028	2.2818814155134517e-16
rxn05466_c0	507.887	63.83962454863432
rxn05467_c0	642.4118	40.0239497782577
rxn05469_c0	-0.0129	0.012362251673161887
rxn05485_c0	0.0	0.0
rxn05488_c0	-972.8112	14.788892095793504
rxn05493_c0	-0.0086	0.009231468487989673
rxn05494_c0	-745.6925	67.21241831078976
rxn05501_c0	0.0	0.0
rxn05512_c0	0.0	0.0
rxn05514_c0	0.0	2.1115699610030533e-18
rxn05515_c0	0.0	0.0
rxn05516_c0	0.0	0.0
rxn05526_c0	0.0	0.0
rxn05527_c0	0.0	0.0
rxn05528_c0	3.1848	3.002678800950398
rxn05533_c0	0.0	0.0
rxn05534_c0	0.0	0.0
rxn05535_c0	0.0	0.0
rxn05536_c0	0.0	0.0
rxn05537_c0	0.0	0.0
rxn05538_c0	0.0	0.0
rxn05539_c0	0.0	0.0
rxn05540_c0	0.0	0.0
rxn05541_c0	0.0	0.0
rxn05542_c0	0.0	0.0
rxn05543_c0	0.0	0.0
rxn05544_c0	0.0	0.0
rxn05545_c0	0.0	0.0
rxn05546_c0	0.0	0.0
rxn05547_c0	0.0	0.0
rxn05549_c0	0.0	0.0
rxn05552_c0	0.0	0.0
rxn05555_c0	0.0	5.883203374070019e-18
rxn05559_c0	-0.0253	0.009336848977310255
rxn05560_c0	-0.0057	0.006212114488231385
rxn05567_c0	0.0	0.0
rxn05569_c0	287.2183	131.37924201316676
rxn05571_c0	0.0	0.0
rxn05574_c0	0.0	0.0
rxn05581_c0	25.0888	21.378442904658307
rxn05582_c0	-0.5517	0.4557269400475969
rxn05585_c0	0.0	0.0
rxn05593_c0	0.0	0.0
rxn05594_c0	0.0	0.0
rxn05599_c0	0.0	0.0
rxn05602_c0	-0.0175	0.0178011877630477
rxn05605_c0	-0.0098	0.008627297113860125
rxn05607_c0	0.0	0.0
rxn05608_c0	0.0	0.0
rxn05610_c0	-0.0085	0.0088448143339945
rxn05612_c0	0.0	0.0
rxn05613_c0	0.0	0.0
rxn05614_c0	0.0	0.0
rxn05616_c0	5.7013	5.602692320222547
rxn05617_c0	0.0	0.0
rxn05618_c0	0.0	7.29558144430955e-20
rxn05619_c0	519.823	159.60587189650465
rxn05620_c0	0.0	0.0
rxn05621_c0	0.0	0.0
rxn05625_c0	-0.0	2.0756119867840087e-14
rxn05627_c0	-17.6338	20.42857342320189
rxn05644_c0	3.283	3.024985638090116
rxn05645_c0	-0.004	0.005564107723559903
rxn05647_c0	0.0	0.0
rxn05649_c0	0.0	0.0
rxn05651_c0	2.4404	1.7741390214955433
rxn05654_c0	-0.0323	0.01919942326030684
rxn05655_c0	0.0	0.0
rxn05656_c0	0.0	0.0
rxn05663_c0	-0.0099	0.005547088111495883
rxn05667_c0	-2.4904	2.489977519271782
rxn05669_c0	-0.0162	0.02170905847948129
rxn05671_c0	-0.0093	0.008571386579602738
rxn05673_c0	0.0	0.0
rxn05682_c0	0.0	0.0
rxn05733_c0	0.0	0.0
rxn05736_c0	0.0	0.0
rxn05938_c0	-224.9943	34.43753868634428
rxn05957_c0	0.0	0.0
rxn05958_c0	0.0	0.0
rxn06023_c0	0.0	0.0
rxn06078_c0	0.0	0.0
rxn06149_c0	0.1251	0.13374830251111677
rxn06377_c0	0.1145	0.10779007710259621
rxn06493_c0	0.1145	0.1077900771025974
rxn06510_c0	0.0	0.0
rxn06591_c0	0.0	0.0
rxn06600_c0	0.1145	0.1077900771025971
rxn06672_c0	0.0028	2.27791263994911e-16
rxn06673_c0	0.0028	2.262222412264819e-16
rxn06799_c0	0.0	0.0
rxn06874_c0	0.0	0.0
rxn06937_c0	0.0	0.0
rxn07189_c0	4.6749	0.1337483025108091
rxn07292_c0	0.1186	0.10141540319370336
rxn07441_c0	6.01	6.2738981700753005
rxn07584_c0	0.0	0.0
rxn07845_c0	0.0	0.0
rxn08040_c0	0.0	0.0
rxn08083_c0	-0.0	1.1400304255692201e-20
rxn08084_c0	-0.0	2.2641113080954693e-20
rxn08085_c0	-0.0	6.749189999232168e-21
rxn08086_c0	0.0	1.1816974553884691e-20
rxn08087_c0	0.0	1.3031408769435924e-20
rxn08088_c0	0.0	1.1405530000253394e-20
rxn08089_c0	0.0	0.0
rxn08131_c0	0.0	1.0342645671113513e-19
rxn08153_c0	30.23	32.253981093416
rxn08180_c0	0.0	0.0
rxn08194_c0	0.0	0.0
rxn08294_c0	0.0	0.0
rxn08295_c0	0.0	2.1979169996375302e-20
rxn08296_c0	0.0	0.0
rxn08297_c0	0.0	0.0
rxn08298_c0	0.0	0.0
rxn08299_c0	0.0	0.0
rxn08300_c0	0.0	0.0
rxn08306_c0	-0.0	1.3611955200753147e-20
rxn08307_c0	0.0	0.0
rxn08308_c0	-0.0	8.05852807525266e-21
rxn08309_c0	0.0	0.0
rxn08310_c0	0.0	1.5559492834036144e-20
rxn08311_c0	0.0	0.0
rxn08312_c0	0.0	0.0
rxn08333_c0	-0.0	6.421138082441419e-15
rxn08335_c0	0.0129	0.011451410906191612
rxn08336_c0	0.0122	0.01265832181143742
rxn08352_c0	0.0	3.3889961241353e-15
rxn08518_c0	10.1603	8.860002141923479
rxn08527_c0	310.0706	197.02470998880906
rxn08528_c0	112.1003	87.98668797229443
rxn08546_c0	0.0	0.0
rxn08547_c0	0.0	4.596007369488115e-20
rxn08548_c0	0.0	0.0
rxn08549_c0	-0.0	1.826147411287653e-20
rxn08550_c0	0.0	0.0
rxn08551_c0	0.0	0.0
rxn08552_c0	0.0	0.0
rxn08655_c0	-173.3761	104.0301899723167
rxn08656_c0	61.2758	71.05726854482035
rxn08657_c0	112.1003	87.98668797229453
rxn08659_c0	3.2272	3.411895632858483
rxn08756_c0	0.0	2.3722965486088626e-14
rxn08783_c0	356.5591	72.73460146599164
rxn09106_c0	0.0	0.0
rxn09108_c0	-0.0	1.1503100010670644e-20
rxn09109_c0	0.0	0.0
rxn09110_c0	-0.0	6.810046978651484e-21
rxn09111_c0	0.0	0.0
rxn09112_c0	0.0	1.3148912081001251e-20
rxn09113_c0	0.0	0.0
rxn09114_c0	0.0	0.0
rxn09177_c0	0.0	9.02529952017281e-09
rxn09197_c0	0.0	0.0
rxn09198_c0	0.0	0.0
rxn09199_c0	0.0	0.0
rxn09200_c0	0.0	0.0
rxn09201_c0	0.0	0.0
rxn09202_c0	0.0	0.0
rxn09203_c0	0.0	0.0
rxn09205_c0	0.0	0.0
rxn09206_c0	0.0	0.0
rxn09207_c0	0.0	0.0
rxn09208_c0	0.0	0.0
rxn09209_c0	0.0	0.0
rxn09210_c0	0.0	0.0
rxn09211_c0	0.0	0.0
rxn09240_c0	2.4404	1.7741390214955495
rxn09272_c0	65.5866	130.22672010381282
rxn09296_c0	0.0	0.0
rxn09310_c0	0.0	1.0320373869334304e-19
rxn09429_c0	0.0	0.0
rxn09448_c0	0.0	0.0
rxn09449_c0	0.0	0.0
rxn09450_c0	0.0	0.0
rxn09562_c0	0.0	0.0
rxn09657_c0	0.0	0.0
rxn09674_c0	-0.0086	0.008370084585581913
rxn09680_c0	0.0	2.909355865140021e-13
rxn09683_c0	116.3707	28.967378603666866
rxn09685_c0	0.0	0.0
rxn09687_c0	0.0	0.0
rxn09688_c0	0.0	0.0
rxn09988_c0	0.0	0.0
rxn09996_c0	0.0	0.0
rxn10042_c0	6.219	6.156350246298682
rxn10052_c0	0.4475	0.22996932524989033
rxn10060_c0	-322.1744	221.99953795604532
rxn10094_c0	-0.0	6.323171669280018e-15
rxn10114_c0	0.0	0.0
rxn10120_c0	248.7826	191.99115211309828
rxn10121_c0	-248.7826	191.99115211309834
rxn10126_c0	0.0	0.0
rxn10147_c0	0.0	0.0
rxn10160_c0	0.0	0.0
rxn10168_c0	5.7792	5.501420426281121
rxn10174_c0	0.0	0.0
rxn10175_c0	0.0	0.0
rxn10184_c0	0.0	0.0
rxn10191_c0	0.0	0.0
rxn10192_c0	0.0	0.0
rxn10193_c0	0.0	0.0
rxn10194_c0	0.0	0.0
rxn10195_c0	0.0	0.0
rxn10196_c0	0.0	0.0
rxn10197_c0	0.0	0.0
rxn10199_c0	0.0	0.0
rxn10202_c0	0.0	0.0
rxn10203_c0	0.0	0.0
rxn10204_c0	0.0	0.0
rxn10205_c0	0.0	0.0
rxn10206_c0	0.0	0.0
rxn10207_c0	-0.0	5.948107722207981e-20
rxn10208_c0	0.0	5.0219374827157094e-20
rxn10209_c0	-0.0	1.0192863100119482e-19
rxn10210_c0	-0.0	3.6927549741561506e-14
rxn10211_c0	-0.0	1.2285783114130226e-20
rxn10212_c0	0.0	0.0
rxn10213_c0	-0.0	1.549926082928811e-20
rxn10214_c0	0.0	0.0
rxn10215_c0	0.0	0.0
rxn10216_c0	-0.0	3.9701542743563186e-20
rxn10217_c0	0.0	3.3227582430270027e-20
rxn10218_c0	-0.0	4.8794903881088356e-20
rxn10219_c0	-0.0	3.593498680253638e-14
rxn10220_c0	0.0	0.0
rxn10221_c0	0.0	0.0
rxn10222_c0	0.0	0.0
rxn10223_c0	0.0	0.0
rxn10224_c0	0.0	0.0
rxn10225_c0	0.0	0.0
rxn10226_c0	0.0	0.0
rxn10227_c0	0.0	0.0
rxn10228_c0	0.0	0.0
rxn10229_c0	0.0	0.0
rxn10230_c0	0.0	0.0
rxn10231_c0	0.0	0.0
rxn10232_c0	0.0	0.0
rxn10233_c0	0.0	0.0
rxn10234_c0	0.0	0.0
rxn10235_c0	0.0	0.0
rxn10236_c0	0.0	0.0
rxn10237_c0	0.0	0.0
rxn10253_c0	0.0	0.0
rxn10254_c0	0.0	0.0
rxn10255_c0	-0.0	3.2387454363261734e-20
rxn10256_c0	-0.0	2.785907409008772e-20
rxn10257_c0	0.0	4.945154626594866e-20
rxn10258_c0	-0.0	4.647322680837892e-15
rxn10259_c0	0.0	0.0
rxn10260_c0	0.0	0.0
rxn10261_c0	0.0	0.0
rxn10262_c0	0.0	0.0
rxn10263_c0	0.0	0.0
rxn10264_c0	0.0	0.0
rxn10265_c0	0.0	0.0
rxn10266_c0	0.0	0.0
rxn10271_c0	0.0	0.0
rxn10272_c0	0.0	0.0
rxn10273_c0	0.0	0.0
rxn10274_c0	0.0	0.0
rxn10275_c0	0.0	0.0
rxn10276_c0	0.0	0.0
rxn10277_c0	0.0	0.0
rxn10278_c0	0.0	0.0
rxn10279_c0	0.0	0.0
rxn10280_c0	0.0	0.0
rxn10281_c0	-0.0	2.1974724841233638e-20
rxn10282_c0	0.0	0.0
rxn10283_c0	0.0	0.0
rxn10284_c0	0.0	0.0
rxn10285_c0	0.0	3.476877647327463e-20
rxn10286_c0	0.0	2.874158031772362e-20
rxn10287_c0	-0.0	3.70383061423672e-20
rxn10288_c0	0.0	4.647329677635695e-15
rxn10291_c0	0.0	0.0
rxn10292_c0	0.0	0.0
rxn10293_c0	0.0	0.0
rxn10298_c0	0.0	0.0
rxn10299_c0	0.0	0.0
rxn10300_c0	0.0	0.0
rxn10301_c0	0.0	0.0
rxn10302_c0	0.0	0.0
rxn10303_c0	0.0	0.0
rxn10304_c0	0.0	0.0
rxn10305_c0	0.0	0.0
rxn10306_c0	0.0	0.0
rxn10307_c0	0.0	0.0
rxn10308_c0	0.0	0.0
rxn10309_c0	0.0	0.0
rxn10310_c0	0.0	0.0
rxn10311_c0	0.0	0.0
rxn10312_c0	0.0	0.0
rxn10313_c0	0.0	0.0
rxn10314_c0	0.0	0.0
rxn10315_c0	0.0	0.0
rxn10318_c0	0.0	0.0
rxn10319_c0	0.0	0.0
rxn10320_c0	0.0	0.0
rxn10334_c0	0.0	0.0
rxn10335_c0	0.0	0.0
rxn10336_c0	0.0	0.0
rxn10337_c0	0.0	0.0
rxn10338_c0	0.0	0.0
rxn10339_c0	0.0	0.0
rxn10340_c0	0.0	0.0
rxn10341_c0	0.0	0.0
rxn10342_c0	0.0	0.0
rxn10343_c0	0.0	0.0
rxn10344_c0	0.0	0.0
rxn10473_c0	0.0	2.1128967234852862e-18
rxn10474_c0	-0.0	3.83488377158109e-21
rxn10480_c0	4.8	3.833510877427711e-13
rxn10481_c0	3.1848	3.0026788009503944
rxn10542_c0	27.4919	17.74344453583925
rxn10571_c0	5.7013	5.602692320222525
rxn10604_c0	0.0	0.0
rxn10954_c0	-0.0	2.4160912407706662e-20
rxn11268_c0	0.0037	0.002323409735291606
rxn11322_c0	0.0143	0.013464145865764806
rxn11946_c0	0.0	0.0
rxn12008_c0	-0.0	6.421137873817895e-15
rxn12080_c0	0.1251	0.13374830251049236
rxn12376_c0	0.0	1.0316210832029102e-19
rxn12510_c0	0.0	2.5654439441775725e-13
rxn12512_c0	0.0	9.02524696727723e-09
rxn12633_c0	0.0	0.0
rxn12634_c0	0.0	0.0
rxn12635_c0	0.0	0.0
rxn12636_c0	0.0	0.0
rxn12637_c0	0.0	0.0
rxn12638_c0	0.0	0.0
rxn12639_c0	0.0	0.0
rxn12640_c0	0.0	0.0
rxn12641_c0	0.0	0.0
rxn12642_c0	0.0	0.0
rxn12643_c0	0.0	0.0
rxn12644_c0	0.0	0.0
rxn12645_c0	0.0	0.0
rxn12646_c0	0.0	0.0
rxn12844_c0	0.0	0.0
rxn12845_c0	0.0	0.0
rxn12846_c0	0.0	0.0
rxn12847_c0	0.0	0.0
rxn12848_c0	0.0	0.0
rxn12849_c0	0.0	0.0
rxn12850_c0	0.0	0.0
rxn12851_c0	0.0	0.0
Biomass_trans_auto	0.0018	4.047049607522176e-16
Biomass_trans_ckluy	0.0028	2.0016178068623916e-16
rxn13730_c0	4.5123	4.432198543415337
rxn13782_c0	0.0	0.0
rxnmolyb	-519.823	159.60587189650067
SOLUTE	0.0001	6.5635596819042936e-18
TALA	-0.2954	0.10986525257050929
TEICH	0.0002	5.048908084371629e-17
ThrTranc0	0.1717	0.43837524299590674
TKT1	-0.2954	0.10986525257064857
TKT2	-0.3224	0.11078079607340112
TPI	30.4496	20.409735946194186
TyrTranc0	-0.0058	0.005033760852127992
